(module pbv3_smallvac (layer F.Cu) (tedit 5EFCD4AD)
  (fp_text reference U1 (at 5.5 -77) (layer F.SilkS)
    (effects (font (size 1 1) (thickness 0.15)))
  )
  (fp_text value pbv3_smallvac (at 0 -0.5) (layer F.Fab)
    (effects (font (size 1 1) (thickness 0.15)))
  )
  (fp_line (start -1 1) (end -1 -73) (layer F.SilkS) (width 0.15))
  (fp_line (start -1 -73) (end 3 -73) (layer F.SilkS) (width 0.15))
  (fp_line (start 3 -73) (end 3 -76) (layer F.SilkS) (width 0.15))
  (fp_line (start 3 -76) (end 8 -76) (layer F.SilkS) (width 0.15))
  (fp_line (start 8 -73) (end 8 -76) (layer F.SilkS) (width 0.15))
  (fp_line (start 8 -73) (end 12 -73) (layer F.SilkS) (width 0.15))
  (fp_line (start 12 1) (end 12 -73) (layer F.SilkS) (width 0.15))
  (fp_line (start -1 1) (end 12 1) (layer F.SilkS) (width 0.15))
  (fp_line (start 11 0) (end 0 0) (layer Eco2.User) (width 0.12))
  (fp_line (start 0 -72) (end 4 -72) (layer Eco2.User) (width 0.12))
  (fp_line (start 4 -72) (end 4 -75) (layer Eco2.User) (width 0.12))
  (fp_line (start 4 -75) (end 7 -75) (layer Eco2.User) (width 0.12))
  (fp_line (start 11 -72) (end 7 -72) (layer Eco2.User) (width 0.12))
  (fp_line (start 7 -75) (end 7 -72) (layer Eco2.User) (width 0.12))
  (fp_line (start 11 -72) (end 11 0) (layer Eco2.User) (width 0.12))
  (fp_line (start 0 0) (end 0 -72) (layer Eco2.User) (width 0.12))
  (pad 14 smd rect (at -2.413 4.04) (size 0.254 1.524) (layers F.Cu F.Mask))
  (pad 15 smd rect (at 0.6425 4.04) (size 0.254 1.524) (layers F.Cu F.Mask))
  (pad 16 smd rect (at 4.572 2.77) (size 1.524 1.524) (layers F.Cu F.Mask))
  (pad 17 smd rect (at 6.421 2.77) (size 1.524 1.524) (layers F.Cu F.Mask))
  (pad 18 smd rect (at 7.945 2.77) (size 0.254 1.524) (layers F.Cu F.Mask))
  (pad 19 smd rect (at 8.453 2.77) (size 0.254 1.524) (layers F.Cu F.Mask))
  (pad 20 smd rect (at 8.961 2.77) (size 0.254 1.524) (layers F.Cu F.Mask))
  (pad 21 smd rect (at 9.469 2.77) (size 0.254 1.524) (layers F.Cu F.Mask))
  (pad 22 smd rect (at 9.977 2.77) (size 0.254 1.524) (layers F.Cu F.Mask))
  (pad 23 smd rect (at 10.485 2.77) (size 0.254 1.524) (layers F.Cu F.Mask))
  (pad 24 smd rect (at 10.993 2.77) (size 0.254 1.524) (layers F.Cu F.Mask))
  (pad 13 smd rect (at -2.77 -31 90) (size 0.254 1.524) (layers F.Cu F.Mask))
  (pad 9 smd rect (at -2.77 -35.161 90) (size 0.254 1.524) (layers F.Cu F.Mask))
  (pad 10 smd rect (at -2.77 -34.653 90) (size 0.254 1.524) (layers F.Cu F.Mask))
  (pad 11 smd rect (at -2.77 -34.145 90) (size 0.254 1.524) (layers F.Cu F.Mask))
  (pad 12 smd rect (at -2.77 -33.637 90) (size 0.254 1.524) (layers F.Cu F.Mask))
  (pad 8 smd rect (at -2.77 -35.669 90) (size 0.254 1.524) (layers F.Cu F.Mask))
  (pad 7 smd rect (at -2.77 -36.177 90) (size 0.254 1.524) (layers F.Cu F.Mask))
  (pad 33 smd rect (at 13.77 -36.177 90) (size 0.254 1.524) (layers F.Cu F.Mask))
  (pad 27 smd rect (at 13.77 -31 90) (size 0.254 1.524) (layers F.Cu F.Mask))
  (pad 31 smd rect (at 13.77 -35.161 90) (size 0.254 1.524) (layers F.Cu F.Mask))
  (pad 30 smd rect (at 13.77 -34.653 90) (size 0.254 1.524) (layers F.Cu F.Mask))
  (pad 29 smd rect (at 13.77 -34.145 90) (size 0.254 1.524) (layers F.Cu F.Mask))
  (pad 28 smd rect (at 13.77 -33.637 90) (size 0.254 1.524) (layers F.Cu F.Mask))
  (pad 32 smd rect (at 13.77 -35.669 90) (size 0.254 1.524) (layers F.Cu F.Mask))
  (pad 34 smd rect (at 13.77 -36.685 90) (size 0.254 1.524) (layers F.Cu F.Mask))
  (pad 6 smd rect (at -2.77 -36.685 90) (size 0.254 1.524) (layers F.Cu F.Mask))
  (pad 5 smd rect (at -2.77 -40.368 90) (size 1.524 1.524) (layers F.Cu F.Mask))
  (pad 4 smd rect (at -2.77 -49.004 90) (size 1.524 1.524) (layers F.Cu F.Mask))
  (pad 2 smd rect (at -2.77 -52.179 90) (size 0.254 1.524) (layers F.Cu F.Mask))
  (pad 1 smd rect (at -2.77 -52.687 90) (size 0.254 1.524) (layers F.Cu F.Mask))
  (pad 3 smd rect (at -2.77 -51.671 90) (size 0.254 1.524) (layers F.Cu F.Mask))
  (pad 37 smd rect (at 13.77 -51.671 90) (size 0.254 1.524) (layers F.Cu F.Mask))
  (pad 39 smd rect (at 13.77 -52.687 90) (size 0.254 1.524) (layers F.Cu F.Mask))
  (pad 36 smd rect (at 13.77 -49.004 90) (size 1.524 1.524) (layers F.Cu F.Mask))
  (pad 38 smd rect (at 13.77 -52.179 90) (size 0.254 1.524) (layers F.Cu F.Mask))
  (pad 35 smd rect (at 13.77 -40.368 90) (size 1.524 1.524) (layers F.Cu F.Mask))
  (pad 26 smd rect (at 13.77 -30.492 90) (size 0.254 1.524) (layers F.Cu F.Mask))
  (pad 25 smd rect (at 13.77 -29.984 90) (size 0.254 1.524) (layers F.Cu F.Mask))
  (pad "" np_thru_hole circle (at 5.5 -73) (size 0.79 0.79) (drill 0.79) (layers *.Cu *.Mask))
  (pad "" np_thru_hole circle (at 5.5 -4.5) (size 0.79 0.79) (drill 0.79) (layers *.Cu *.Mask))
  (pad 16 thru_hole circle (at 5.5 -1.905) (size 1.2 1.2) (drill 1) (layers *.Cu *.Mask))
  (pad 16 thru_hole circle (at 8.802 -1.905) (size 1.2 1.2) (drill 1) (layers *.Cu *.Mask))
  (pad 16 thru_hole circle (at 2.198 -1.905) (size 1.2 1.2) (drill 1) (layers *.Cu *.Mask))
  (pad 16 thru_hole circle (at 5.5 -32.385) (size 1.2 1.2) (drill 1) (layers *.Cu *.Mask))
  (pad 16 thru_hole circle (at 5.5 -36.195) (size 1.2 1.2) (drill 1) (layers *.Cu *.Mask))
  (pad 16 thru_hole circle (at 5.5 -40.005) (size 1.2 1.2) (drill 1) (layers *.Cu *.Mask))
  (pad 16 thru_hole circle (at 5.5 -51.435) (size 1.2 1.2) (drill 1) (layers *.Cu *.Mask))
  (pad 16 thru_hole circle (at 2.198 -17.145) (size 1.2 1.2) (drill 1) (layers *.Cu *.Mask))
  (pad 16 thru_hole circle (at 2.198 -32.385) (size 1.2 1.2) (drill 1) (layers *.Cu *.Mask))
  (pad 16 thru_hole circle (at 2.198 -36.195) (size 1.2 1.2) (drill 1) (layers *.Cu *.Mask))
  (pad 16 thru_hole circle (at 2.198 -40.005) (size 1.2 1.2) (drill 1) (layers *.Cu *.Mask))
  (pad 16 thru_hole circle (at 2.198 -51.435) (size 1.2 1.2) (drill 1) (layers *.Cu *.Mask))
  (pad 16 thru_hole circle (at 8.802 -32.385) (size 1.2 1.2) (drill 1) (layers *.Cu *.Mask))
  (pad 16 thru_hole circle (at 8.802 -36.195) (size 1.2 1.2) (drill 1) (layers *.Cu *.Mask))
  (pad 16 thru_hole circle (at 8.802 -40.005) (size 1.2 1.2) (drill 1) (layers *.Cu *.Mask))
  (pad 16 thru_hole circle (at 8.802 -51.435) (size 1.2 1.2) (drill 1) (layers *.Cu *.Mask))
  (pad 16 thru_hole circle (at 5.5 -17.145) (size 1.2 1.2) (drill 1) (layers *.Cu *.Mask))
  (pad 16 thru_hole circle (at 8.802 -17.145) (size 1.2 1.2) (drill 1) (layers *.Cu *.Mask))
)
