(module adafruit_ft232h_nohole_nooutline (layer F.Cu) (tedit 5B842F97)
  (fp_text reference U1 (at 0 -25.4) (layer F.SilkS)
    (effects (font (size 0.508 0.508) (thickness 0.0762)))
  )
  (fp_text value adafruit_ft232h (at 0 -0.5) (layer F.Fab)
    (effects (font (size 1 1) (thickness 0.15)))
  )
  (fp_text user C2 (at 10.16 -6.35) (layer F.SilkS)
    (effects (font (size 0.508 0.508) (thickness 0.0762)))
  )
  (fp_text user C1 (at 10.16 -3.81) (layer F.SilkS)
    (effects (font (size 0.508 0.508) (thickness 0.0762)))
  )
  (fp_text user C0 (at 10.16 -1.27) (layer F.SilkS)
    (effects (font (size 0.508 0.508) (thickness 0.0762)))
  )
  (fp_text user C3 (at 10.16 -8.89) (layer F.SilkS)
    (effects (font (size 0.508 0.508) (thickness 0.0762)))
  )
  (fp_text user C4 (at 10.16 -11.43) (layer F.SilkS)
    (effects (font (size 0.508 0.508) (thickness 0.0762)))
  )
  (fp_text user C5 (at 10.16 -13.97) (layer F.SilkS)
    (effects (font (size 0.508 0.508) (thickness 0.0762)))
  )
  (fp_text user C6 (at 10.16 -16.51) (layer F.SilkS)
    (effects (font (size 0.508 0.508) (thickness 0.0762)))
  )
  (fp_text user C7 (at 10.16 -19.05) (layer F.SilkS)
    (effects (font (size 0.508 0.508) (thickness 0.0762)))
  )
  (fp_text user C8 (at 10.16 -21.59) (layer F.SilkS)
    (effects (font (size 0.508 0.508) (thickness 0.0762)))
  )
  (fp_text user C9 (at 10.16 -24.13) (layer F.SilkS)
    (effects (font (size 0.508 0.508) (thickness 0.0762)))
  )
  (fp_text user D7 (at -10.16 -1.27) (layer F.SilkS)
    (effects (font (size 0.508 0.508) (thickness 0.0762)))
  )
  (fp_text user D6 (at -10.16 -3.81) (layer F.SilkS)
    (effects (font (size 0.508 0.508) (thickness 0.0762)))
  )
  (fp_text user D5 (at -10.16 -6.35) (layer F.SilkS)
    (effects (font (size 0.508 0.508) (thickness 0.0762)))
  )
  (fp_text user D4 (at -10.16 -8.89) (layer F.SilkS)
    (effects (font (size 0.508 0.508) (thickness 0.0762)))
  )
  (fp_text user D3 (at -10.16 -11.43) (layer F.SilkS)
    (effects (font (size 0.508 0.508) (thickness 0.0762)))
  )
  (fp_text user D2 (at -10.16 -13.97) (layer F.SilkS)
    (effects (font (size 0.508 0.508) (thickness 0.0762)))
  )
  (fp_text user D1 (at -10.16 -16.51) (layer F.SilkS)
    (effects (font (size 0.508 0.508) (thickness 0.0762)))
  )
  (fp_text user D0 (at -10.16 -19.05) (layer F.SilkS)
    (effects (font (size 0.508 0.508) (thickness 0.0762)))
  )
  (fp_text user GND (at -10.16 -21.59) (layer F.SilkS)
    (effects (font (size 0.508 0.508) (thickness 0.0762)))
  )
  (fp_text user 5V (at -10.16 -24.13) (layer F.SilkS)
    (effects (font (size 0.508 0.508) (thickness 0.0762)))
  )
  (pad 1 thru_hole circle (at -10.16 -25.4) (size 1.524 1.524) (drill 0.762) (layers *.Cu *.Mask))
  (pad 2 thru_hole circle (at -10.16 -22.86) (size 1.524 1.524) (drill 0.762) (layers *.Cu *.Mask))
  (pad 3 thru_hole circle (at -10.16 -20.32) (size 1.524 1.524) (drill 0.762) (layers *.Cu *.Mask))
  (pad 4 thru_hole circle (at -10.16 -17.78) (size 1.524 1.524) (drill 0.762) (layers *.Cu *.Mask))
  (pad 5 thru_hole circle (at -10.16 -15.24) (size 1.524 1.524) (drill 0.762) (layers *.Cu *.Mask))
  (pad 6 thru_hole circle (at -10.16 -12.7) (size 1.524 1.524) (drill 0.762) (layers *.Cu *.Mask))
  (pad 7 thru_hole circle (at -10.16 -10.16) (size 1.524 1.524) (drill 0.762) (layers *.Cu *.Mask))
  (pad 8 thru_hole circle (at -10.16 -7.62) (size 1.524 1.524) (drill 0.762) (layers *.Cu *.Mask))
  (pad 9 thru_hole circle (at -10.16 -5.08) (size 1.524 1.524) (drill 0.762) (layers *.Cu *.Mask))
  (pad 10 thru_hole circle (at -10.16 -2.54) (size 1.524 1.524) (drill 0.762) (layers *.Cu *.Mask))
  (pad 20 thru_hole circle (at 10.16 -25.4) (size 1.524 1.524) (drill 0.762) (layers *.Cu *.Mask))
  (pad 19 thru_hole circle (at 10.16 -22.86) (size 1.524 1.524) (drill 0.762) (layers *.Cu *.Mask))
  (pad 18 thru_hole circle (at 10.16 -20.32) (size 1.524 1.524) (drill 0.762) (layers *.Cu *.Mask))
  (pad 17 thru_hole circle (at 10.16 -17.78) (size 1.524 1.524) (drill 0.762) (layers *.Cu *.Mask))
  (pad 16 thru_hole circle (at 10.16 -15.24) (size 1.524 1.524) (drill 0.762) (layers *.Cu *.Mask))
  (pad 15 thru_hole circle (at 10.16 -12.7) (size 1.524 1.524) (drill 0.762) (layers *.Cu *.Mask))
  (pad 14 thru_hole circle (at 10.16 -10.16) (size 1.524 1.524) (drill 0.762) (layers *.Cu *.Mask))
  (pad 13 thru_hole circle (at 10.16 -7.62) (size 1.524 1.524) (drill 0.762) (layers *.Cu *.Mask))
  (pad 12 thru_hole circle (at 10.16 -5.08) (size 1.524 1.524) (drill 0.762) (layers *.Cu *.Mask))
  (pad 11 thru_hole circle (at 10.16 -2.54) (size 1.524 1.524) (drill 0.762) (layers *.Cu *.Mask))
)
