(module LCD-17153 (layer F.Cu) (tedit 60640544)
  (descr http://www.keyelco.com/product-pdf.cfm?p=14249)
  (attr smd)
  (fp_text reference REF** (at 2 15.3) (layer F.SilkS)
    (effects (font (size 1 1) (thickness 0.15)))
  )
  (fp_text value LCD-17153 (at 24 -2) (layer F.Fab)
    (effects (font (size 1 1) (thickness 0.15)))
  )
  (fp_line (start 49.2125 0) (end 49.2125 14.2875) (layer F.SilkS) (width 0.15))
  (fp_line (start 49.2125 14.2875) (end 0 14.2875) (layer F.SilkS) (width 0.15))
  (fp_line (start 0 14.2875) (end 0 0) (layer F.SilkS) (width 0.15))
  (fp_line (start 0 0) (end 49.2125 0) (layer F.SilkS) (width 0.15))
  (pad 1 thru_hole circle (at 3 11.3) (size 6.1976 6.1976) (drill 4.2164) (layers *.Cu *.Mask))
  (pad 2 thru_hole circle (at 46.2 3) (size 6.1976 6.1976) (drill 4.2164) (layers *.Cu *.Mask))
)
