PCBNEW-LibModule-V1   04/05/2017-14:13:06
$INDEX
con-molex-vhdci-71430-015
$EndINDEX
$MODULE con-molex-vhdci-71430-015
Po 0 0 0 15 00200000 00000000 ~~
Li con-molex-vhdci-71430-015
Cd CONNECTOR
Kw CONNECTOR
Sc 00000000
Op 0 0 0
At VIRTUAL
DS -1456 -472 -1456 -393 10 24
DS -1456 -393 -1456 -275 10 24
DS -1456 -275 -1456 1692 10 24
DS 1377 -925 1377 -846 10 24
DS 1377 -846 1377 -728 10 24
DS 1377 -728 1377 1692 10 24
DS -1535 -472 -1456 -472 10 24
DS -5314 -472 -5314 -393 10 24
DS -5314 -393 -5314 -275 10 24
DS -5314 -275 -5314 1692 10 24
DS -393 1791 -393 2007 10 24
DS -3740 -925 -3740 -846 10 24
DS -3740 -846 -3740 -728 10 24
DS -3740 -728 -3740 1673 10 24
DS -3740 1673 -3740 1692 10 24
DS 2874 -472 2874 -393 10 24
DS 2874 -393 2874 -275 10 24
DS 2874 -275 2874 1692 10 24
DS 3937 2007 4724 2007 10 24
DS 1141 452 1220 452 10 24
DS -3937 1791 -4724 1791 10 24
DS -6358 -1062 -6358 1692 10 24
DS -5157 452 -5078 452 10 24
DS -4212 0 -4133 0 10 24
DS 2401 452 2480 452 10 24
DS -5118 2559 -5118 1692 10 24
DS 5905 -1062 6358 -1062 10 24
DS -2007 452 -2007 531 10 24
DS -2007 531 -2007 649 10 24
DS -2007 649 -2007 1692 10 24
DS -3897 452 -3897 531 10 24
DS -3897 531 -3897 649 10 24
DS -3897 649 -3897 1673 10 24
DS -3897 1673 -3897 1692 10 24
DS 3818 -925 3897 -925 10 24
DS 3503 -472 3503 -393 10 24
DS 3503 -393 3503 -275 10 24
DS 3503 -275 3503 1692 10 24
DS 4724 2007 4724 1791 10 24
DS 3937 2244 4724 2244 10 24
DS 1062 -472 1062 -393 10 24
DS 1062 -393 1062 -275 10 24
DS 1062 -275 1062 1692 10 24
DS 6712 1299 6811 1299 10 24
DS 6811 1299 7992 1299 10 24
DS 7992 1299 8090 1299 10 24
DS -1377 452 -1377 531 10 24
DS -1377 531 -1377 649 10 24
DS -1377 649 -1377 1692 10 24
DS 3031 452 3031 531 10 24
DS 3031 531 3031 649 10 24
DS 3031 649 3031 1692 10 24
DS 3976 0 3976 78 10 24
DS 3976 78 3976 196 10 24
DS 3976 196 3976 1673 10 24
DS 3976 1673 3976 1692 10 24
DS -2795 -472 -2716 -472 10 24
DS 7893 -944 6909 -944 10 24
DS -5118 1692 -5078 1692 10 24
DS -5078 1692 -4999 1692 10 24
DS -4999 1692 -4921 1692 10 24
DS -4921 1692 -4842 1692 10 24
DS -4842 1692 -4763 1692 10 24
DS -4763 1692 -4685 1692 10 24
DS -4685 1692 -4606 1692 10 24
DS -4606 1692 -4527 1692 10 24
DS -4527 1692 -4448 1692 10 24
DS -4448 1692 -4370 1692 10 24
DS -4370 1692 -4291 1692 10 24
DS -4291 1692 -4212 1692 10 24
DS -4212 1692 -4133 1692 10 24
DS -4133 1692 -4055 1692 10 24
DS -4055 1692 -3976 1692 10 24
DS -3976 1692 -3818 1692 10 24
DS -3818 1692 -3661 1692 10 24
DS -3661 1692 -3582 1692 10 24
DS -3582 1692 -3543 1692 10 24
DS -1614 0 -1614 78 10 24
DS -1614 78 -1614 196 10 24
DS -1614 196 -1614 1692 10 24
DS 3937 2460 4724 2460 10 24
DS -2401 -925 -2401 -846 10 24
DS -2401 -846 -2401 -728 10 24
DS -2401 -728 -2401 1692 10 24
DS 7992 1299 7992 433 10 24
DS 7992 433 7992 -354 10 24
DS 7992 -354 7992 -846 10 24
DS -5118 2559 -3543 2559 10 24
DS 787 1692 787 1673 10 24
DS 2007 -925 2007 -846 10 24
DS 2007 -846 2007 -728 10 24
DS 2007 -728 2007 1692 10 24
DS 2086 0 2086 78 10 24
DS 2086 78 2086 196 10 24
DS 2086 196 2086 1692 10 24
DS 3897 -925 3897 -846 10 24
DS 3897 -846 3897 -728 10 24
DS 3897 -728 3897 1673 10 24
DS 3897 1673 3897 1692 10 24
DS -3267 452 -3267 531 10 24
DS -3267 531 -3267 649 10 24
DS -3267 649 -3267 1692 10 24
DS 6811 1299 6811 433 10 24
DS 6811 433 6811 -354 10 24
DS 6811 -354 6811 -846 10 24
DS -1299 452 -1299 531 10 24
DS -1299 531 -1299 649 10 24
DS -1299 649 -1299 1692 10 24
DS -4527 452 -4448 452 10 24
DS 4133 -472 4212 -472 10 24
DS 1456 0 1456 78 10 24
DS 1456 78 1456 196 10 24
DS 1456 196 1456 1692 10 24
DS -2716 -472 -2716 -393 10 24
DS -2716 -393 -2716 -275 10 24
DS -2716 -275 -2716 1692 10 24
DS 4055 0 4055 78 10 24
DS 4055 78 4055 196 10 24
DS 4055 196 4055 1673 10 24
DS 4055 1673 4055 1692 10 24
DS -2952 0 -2874 0 10 24
DS -2637 452 -2559 452 10 24
DS -6909 -944 -7893 -944 10 24
DS -3543 2657 -787 2657 10 24
DS 4724 1791 3937 1791 10 24
DS -748 452 -669 452 10 24
DS -2086 -472 -2086 -393 10 24
DS -2086 -393 -2086 -275 10 24
DS -2086 -275 -2086 1692 10 24
DS 3818 -925 3818 -846 10 24
DS 3818 -846 3818 -728 10 24
DS 3818 -728 3818 1673 10 24
DS 3818 1673 3818 1692 10 24
DS 4133 -472 4133 -393 10 24
DS 4133 -393 4133 -275 10 24
DS 4133 -275 4133 1673 10 24
DS 4133 1673 4133 1692 10 24
DS 7992 433 6811 433 10 24
DS -4606 -472 -4606 -393 10 24
DS -4606 -393 -4606 -275 10 24
DS -4606 -275 -4606 1673 10 24
DS -4606 1673 -4606 1692 10 24
DS 1299 -925 1299 -846 10 24
DS 1299 -846 1299 -728 10 24
DS 1299 -728 1299 1692 10 24
DS 3976 0 4055 0 10 24
DS 2165 0 2165 78 10 24
DS 2165 78 2165 196 10 24
DS 2165 196 2165 1692 10 24
DS -3110 -925 -3110 -846 10 24
DS -3110 -846 -3110 -728 10 24
DS -3110 -728 -3110 1692 10 24
DS 1614 -472 1614 -393 10 24
DS 1614 -393 1614 -275 10 24
DS 1614 -275 1614 1692 10 24
DS 4448 -925 4527 -925 10 24
DS 984 -472 984 -393 10 24
DS 984 -393 984 -275 10 24
DS 984 -275 984 1692 10 24
DS -1692 0 -1614 0 10 24
DS -4685 -472 -4606 -472 10 24
DS 3937 2007 3937 2023 10 24
DS 3937 2023 3937 2228 10 24
DS 3937 2228 3937 2244 10 24
DS 4291 452 4291 531 10 24
DS 4291 531 4291 649 10 24
DS 4291 649 4291 1673 10 24
DS 4291 1673 4291 1692 10 24
DS -4724 2007 -4724 2023 10 24
DS -4724 2023 -4724 2228 10 24
DS -4724 2228 -4724 2244 10 24
DS -4724 2244 -4724 2460 10 24
DS 4212 -472 4212 -393 10 24
DS 4212 -393 4212 -275 10 24
DS 4212 -275 4212 1673 10 24
DS 4212 1673 4212 1692 10 24
DS 511 452 590 452 10 24
DS -1220 -925 -1220 -846 10 24
DS -1220 -846 -1220 -728 10 24
DS -1220 -728 -1220 1692 10 24
DS 1692 -472 1692 -393 10 24
DS 1692 -393 1692 -275 10 24
DS 1692 -275 1692 1692 10 24
DS -5314 -472 -5236 -472 10 24
DS -393 2460 393 2460 10 24
DS -2480 -925 -2401 -925 10 24
DS 4370 452 4370 531 10 24
DS 4370 531 4370 649 10 24
DS 4370 649 4370 1673 10 24
DS 4370 1673 4370 1692 10 24
DS 5118 2559 5118 1692 10 24
DS 354 -472 433 -472 10 24
DS -5078 452 -5078 531 10 24
DS -5078 531 -5078 649 10 24
DS -5078 649 -5078 1673 10 24
DS -5078 1673 -5078 1692 10 24
DS -3818 452 -3818 531 10 24
DS -3818 531 -3818 649 10 24
DS -3818 649 -3818 1673 10 24
DS -3818 1673 -3818 1692 10 24
DS -2559 452 -2559 531 10 24
DS -2559 531 -2559 649 10 24
DS -2559 649 -2559 1692 10 24
DS -4291 -925 -4291 -846 10 24
DS -4291 -846 -4291 -728 10 24
DS -4291 -728 -4291 1673 10 24
DS -4291 1673 -4291 1692 10 24
DS -4527 452 -4527 531 10 24
DS -4527 531 -4527 649 10 24
DS -4527 649 -4527 1673 10 24
DS -4527 1673 -4527 1692 10 24
DS 1929 -925 2007 -925 10 24
DS 1929 -925 1929 -846 10 24
DS 1929 -846 1929 -728 10 24
DS 1929 -728 1929 1692 10 24
DS 984 -472 1062 -472 10 24
DS 196 0 275 0 10 24
DS -4212 0 -4212 78 10 24
DS -4212 78 -4212 196 10 24
DS -4212 196 -4212 1673 10 24
DS -4212 1673 -4212 1692 10 24
DS -4763 0 -4763 78 10 24
DS -4763 78 -4763 196 10 24
DS -4763 196 -4763 1673 10 24
DS -4763 1673 -4763 1692 10 24
DS 2322 -472 2322 -393 10 24
DS 2322 -393 2322 -275 10 24
DS 2322 -275 2322 1692 10 24
DS -4921 -925 -4921 -846 10 24
DS -4921 -846 -4921 -728 10 24
DS -4921 -728 -4921 1673 10 24
DS -4921 1673 -4921 1692 10 24
DS 826 0 826 78 10 24
DS 826 78 826 196 10 24
DS 826 196 826 1692 10 24
DS 5312 0 5312 78 10 24
DS 5312 78 5312 196 10 24
DS 5312 196 5312 1692 10 24
DS 5511 -1062 5511 118 10 24
DS 39 -925 118 -925 10 24
DS -3976 -472 -3976 -393 10 24
DS -3976 -393 -3976 -275 10 24
DS -3976 -275 -3976 1673 10 24
DS -3976 1673 -3976 1692 10 24
DS -3661 -925 -3661 -846 10 24
DS -3661 -846 -3661 -728 10 24
DS -3661 -728 -3661 1673 10 24
DS -3661 1673 -3661 1692 10 24
DS -1850 -925 -1771 -925 10 24
DS 905 0 905 78 10 24
DS 905 78 905 196 10 24
DS 905 196 905 1692 10 24
DS 5078 -925 5157 -925 10 24
DS -787 2559 787 2559 10 24
DS 6151 4704 5836 4704 10 24
DS 5836 4704 5629 4704 10 24
DS 5629 4704 5568 4704 10 24
DS 5568 4704 -5568 4704 10 24
DS -5568 4704 -5629 4704 10 24
DS -5629 4704 -5836 4704 10 24
DS -5836 4704 -6151 4704 10 24
DS -5511 -1062 5511 -1062 10 24
DS 3582 1673 3661 1673 10 24
DS 3740 1673 3818 1673 10 24
DS 3897 1673 3976 1673 10 24
DS 4055 1673 4133 1673 10 24
DS 4212 1673 4291 1673 10 24
DS 4370 1673 4448 1673 10 24
DS 4527 1673 4606 1673 10 24
DS 4685 1673 4763 1673 10 24
DS 4842 1673 4921 1673 10 24
DS 5000 1673 5078 1673 10 24
DS -118 452 -39 452 10 24
DS -4133 0 -4133 78 10 24
DS -4133 78 -4133 196 10 24
DS -4133 196 -4133 1673 10 24
DS -4133 1673 -4133 1692 10 24
DS -984 0 -984 78 10 24
DS -984 78 -984 196 10 24
DS -984 196 -984 1692 10 24
DS -393 2007 393 2007 10 24
DS 3503 -472 3582 -472 10 24
DS -3425 -472 -3425 -393 10 24
DS -3425 -393 -3425 -275 10 24
DS -3425 -275 -3425 1692 10 24
DS -275 -472 -196 -472 10 24
DS 2244 -472 2244 -393 10 24
DS 2244 -393 2244 -275 10 24
DS 2244 -275 2244 1692 10 24
DS 2795 0 2795 78 10 24
DS 2795 78 2795 196 10 24
DS 2795 196 2795 1692 10 24
DS -2322 0 -2244 0 10 24
DS 4291 452 4370 452 10 24
DS -3543 2559 -3543 1692 10 24
DS 5078 -925 5078 -846 10 24
DS 5078 -846 5078 -728 10 24
DS 5078 -728 5078 1673 10 24
DS 5078 1673 5078 1692 10 24
DS 787 1692 1141 1692 10 24
DS 1141 1692 1220 1692 10 24
DS 1220 1692 1535 1692 10 24
DS 1535 1692 1771 1692 10 24
DS 1771 1692 1850 1692 10 24
DS 1850 1692 2401 1692 10 24
DS 2401 1692 2480 1692 10 24
DS 2480 1692 2559 1692 10 24
DS 2559 1692 2637 1692 10 24
DS 2637 1692 2716 1692 10 24
DS 2716 1692 2952 1692 10 24
DS 2952 1692 3110 1692 10 24
DS 3110 1692 3188 1692 10 24
DS 3188 1692 3267 1692 10 24
DS 3267 1692 3346 1692 10 24
DS 3346 1692 3425 1692 10 24
DS 3425 1692 3543 1692 10 24
DS 433 -472 433 -393 10 24
DS 433 -393 433 -275 10 24
DS 433 -275 433 1673 10 24
DS 433 1673 433 1692 10 24
DS 511 452 511 531 10 24
DS 511 531 511 649 10 24
DS 511 649 511 1673 10 24
DS 511 1673 511 1692 10 24
DS 6712 -1062 6712 1299 10 24
DS -433 0 -354 0 10 24
DS -1141 -925 -1141 -846 10 24
DS -1141 -846 -1141 -728 10 24
DS -1141 -728 -1141 1692 10 24
DS 3188 -925 3267 -925 10 24
DS -393 2244 393 2244 10 24
DS -2795 -472 -2795 -393 10 24
DS -2795 -393 -2795 -275 10 24
DS -2795 -275 -2795 1692 10 24
DS 4921 452 5000 452 10 24
DS 275 0 275 78 10 24
DS 275 78 275 196 10 24
DS 275 196 275 1673 10 24
DS 275 1673 275 1692 10 24
DS 5157 -925 5157 -846 10 24
DS 5157 -846 5157 -728 10 24
DS 5157 -728 5157 1692 10 24
DS 3543 2559 3543 1692 10 24
DS -6358 -1062 -5905 -1062 10 24
DS -1220 -925 -1141 -925 10 24
DS -590 -925 -511 -925 10 24
DS -5157 452 -5157 531 10 24
DS -5157 531 -5157 649 10 24
DS -5157 649 -5157 1692 10 24
DS -5905 1692 -5590 1692 10 24
DS -5590 1692 -5236 1692 10 24
DS -5236 1692 -5118 1692 10 24
DS 8090 -1062 8090 1299 10 24
DS 2874 -472 2952 -472 10 24
DS -4448 452 -4448 531 10 24
DS -4448 531 -4448 649 10 24
DS -4448 649 -4448 1673 10 24
DS -4448 1673 -4448 1692 10 24
DS 3425 0 3425 78 10 24
DS 3425 78 3425 196 10 24
DS 3425 196 3425 1692 10 24
DS -4370 -925 -4291 -925 10 24
DS 1220 452 1220 531 10 24
DS 1220 531 1220 649 10 24
DS 1220 649 1220 1692 10 24
DS -7992 -354 -6811 -354 10 24
DS -5905 118 -5511 118 10 24
DS 787 2559 787 1692 10 24
DS 590 452 590 531 10 24
DS 590 531 590 649 10 24
DS 590 649 590 1673 10 24
DS 590 1673 590 1692 10 24
DS 5234 0 5234 78 10 24
DS 5234 78 5234 196 10 24
DS 5234 196 5234 1692 10 24
DS 6712 -1062 6791 -1062 10 24
DS 6791 -1062 7913 -1062 10 24
DS 7913 -1062 8090 -1062 10 24
DS -4685 -472 -4685 -393 10 24
DS -4685 -393 -4685 -275 10 24
DS -4685 -275 -4685 1673 10 24
DS -4685 1673 -4685 1692 10 24
DS -4724 2007 -3937 2007 10 24
DS -4842 0 -4763 0 10 24
DS 2637 -925 2637 -846 10 24
DS 2637 -846 2637 -728 10 24
DS 2637 -728 2637 1692 10 24
DS 2559 -925 2637 -925 10 24
DS 2716 0 2716 78 10 24
DS 2716 78 2716 196 10 24
DS 2716 196 2716 1692 10 24
DS -3582 0 -3582 78 10 24
DS -3582 78 -3582 196 10 24
DS -3582 196 -3582 1673 10 24
DS -3582 1673 -3582 1692 10 24
DS 3031 452 3110 452 10 24
DS 4724 2460 4724 2244 10 24
DS 669 -925 748 -925 10 24
DS -787 2559 -787 1692 10 24
DS -787 1692 -787 1673 10 24
DS -1692 0 -1692 78 10 24
DS -1692 78 -1692 196 10 24
DS -1692 196 -1692 1692 10 24
DS -4842 0 -4842 78 10 24
DS -4842 78 -4842 196 10 24
DS -4842 196 -4842 1673 10 24
DS -4842 1673 -4842 1692 10 24
DS -1062 0 -1062 78 10 24
DS -1062 78 -1062 196 10 24
DS -1062 196 -1062 1692 10 24
DS -1771 -925 -1771 -846 10 24
DS -1771 -846 -1771 -728 10 24
DS -1771 -728 -1771 1692 10 24
DS 1535 0 1535 78 10 24
DS 1535 78 1535 196 10 24
DS 1535 196 1535 1692 10 24
DS -5118 2559 -5118 2657 10 24
DS -3582 0 -3503 0 10 24
DS 1850 452 1850 531 10 24
DS 1850 531 1850 649 10 24
DS 1850 649 1850 1692 10 24
DS -1850 -925 -1850 -846 10 24
DS -1850 -846 -1850 -728 10 24
DS -1850 -728 -1850 1692 10 24
DS -5905 -1062 -5905 1692 10 24
DS 787 2559 3543 2559 10 24
DS -787 1673 -748 1673 10 24
DS -669 1673 -590 1673 10 24
DS -511 1673 -433 1673 10 24
DS -354 1673 -275 1673 10 24
DS -196 1673 -118 1673 10 24
DS -39 1673 39 1673 10 24
DS 118 1673 196 1673 10 24
DS 275 1673 354 1673 10 24
DS 433 1673 511 1673 10 24
DS 590 1673 669 1673 10 24
DS 748 1673 787 1673 10 24
DS -2165 -472 -2165 -393 10 24
DS -2165 -393 -2165 -275 10 24
DS -2165 -275 -2165 1692 10 24
DS 2559 -925 2559 -846 10 24
DS 2559 -846 2559 -728 10 24
DS 2559 -728 2559 1692 10 24
DS 3582 -472 3582 -393 10 24
DS 3582 -393 3582 -275 10 24
DS 3582 -275 3582 1673 10 24
DS 3582 1673 3582 1692 10 24
DS 2480 452 2480 531 10 24
DS 2480 531 2480 649 10 24
DS 2480 649 2480 1692 10 24
DS 5234 0 5312 0 10 24
DS -8090 1299 -7992 1299 10 24
DS -7992 1299 -6811 1299 10 24
DS -6811 1299 -6712 1299 10 24
DS -8405 1692 -7913 1692 10 24
DS -7913 1692 -6791 1692 10 24
DS -6791 1692 -6732 1692 10 24
DS -6732 1692 -6476 1692 10 24
DS -6476 1692 -6358 1692 10 24
DS -5078 1673 -4999 1673 10 24
DS -4921 1673 -4842 1673 10 24
DS -4763 1673 -4685 1673 10 24
DS -4606 1673 -4527 1673 10 24
DS -4448 1673 -4370 1673 10 24
DS -4291 1673 -4212 1673 10 24
DS -4133 1673 -4055 1673 10 24
DS -3976 1673 -3897 1673 10 24
DS -3818 1673 -3740 1673 10 24
DS -3661 1673 -3582 1673 10 24
DS -3897 452 -3818 452 10 24
DS -1929 452 -1929 531 10 24
DS -1929 531 -1929 649 10 24
DS -1929 649 -1929 1692 10 24
DS 1771 452 1771 531 10 24
DS 1771 531 1771 649 10 24
DS 1771 649 1771 1692 10 24
DS -3346 -472 -3346 -393 10 24
DS -3346 -393 -3346 -275 10 24
DS -3346 -275 -3346 1692 10 24
DS -7992 433 -6811 433 10 24
DS 196 0 196 78 10 24
DS 196 78 196 196 10 24
DS 196 196 196 1673 10 24
DS 196 1673 196 1692 10 24
DS 3543 2559 5118 2559 10 24
DS -8405 2559 -8405 2657 10 24
DS -4724 1791 -4724 2007 10 24
DS 3346 0 3346 78 10 24
DS 3346 78 3346 196 10 24
DS 3346 196 3346 1692 10 24
DS 1771 452 1850 452 10 24
DS 2401 452 2401 531 10 24
DS 2401 531 2401 649 10 24
DS 2401 649 2401 1692 10 24
DS 393 1791 -393 1791 10 24
DS 5118 2559 6594 2559 10 24
DS 6594 2559 6791 2559 10 24
DS 6791 2559 7027 2559 10 24
DS 7027 2559 7814 2559 10 24
DS 7814 2559 8405 2559 10 24
DS 39 -925 39 -846 10 24
DS 39 -846 39 -728 10 24
DS 39 -728 39 1673 10 24
DS 39 1673 39 1692 10 24
DS -3740 -925 -3661 -925 10 24
DS 3937 1791 3937 2007 10 24
DS -787 1692 -748 1692 10 24
DS -748 1692 -669 1692 10 24
DS -669 1692 -590 1692 10 24
DS -590 1692 -511 1692 10 24
DS -511 1692 -433 1692 10 24
DS -433 1692 -354 1692 10 24
DS -354 1692 -275 1692 10 24
DS -275 1692 -196 1692 10 24
DS -196 1692 -118 1692 10 24
DS -118 1692 -39 1692 10 24
DS -39 1692 118 1692 10 24
DS 118 1692 354 1692 10 24
DS 354 1692 669 1692 10 24
DS 669 1692 748 1692 10 24
DS 748 1692 787 1692 10 24
DS 8405 2559 8405 2657 10 24
DS 6358 -1062 6358 1692 10 24
DS -118 452 -118 531 10 24
DS -118 531 -118 649 10 24
DS -118 649 -118 1673 10 24
DS -118 1673 -118 1692 10 24
DS -3937 2007 -3937 2023 10 24
DS -3937 2023 -3937 2228 10 24
DS -3937 2228 -3937 2244 10 24
DS -3937 2244 -3937 2460 10 24
DS 118 -925 118 -846 10 24
DS 118 -846 118 -728 10 24
DS 118 -728 118 1673 10 24
DS 118 1673 118 1692 10 24
DS 2244 -472 2322 -472 10 24
DS 2086 0 2165 0 10 24
DS -1377 452 -1299 452 10 24
DS -3267 452 -3188 452 10 24
DS -3503 0 -3503 78 10 24
DS -3503 78 -3503 196 10 24
DS -3503 196 -3503 1692 10 24
DS 3740 452 3740 531 10 24
DS 3740 531 3740 649 10 24
DS 3740 649 3740 1673 10 24
DS 3740 1673 3740 1692 10 24
DS 4724 2007 4724 2023 10 24
DS 4724 2023 4724 2228 10 24
DS 4724 2228 4724 2244 10 24
DS 1456 0 1535 0 10 24
DS -3188 452 -3188 531 10 24
DS -3188 531 -3188 649 10 24
DS -3188 649 -3188 1692 10 24
DS 5905 -1062 5905 118 10 24
DS 5905 118 5905 1692 10 24
DS -8405 1692 -8405 -177 10 24
DS -8405 -177 -8405 -1062 10 24
DS -275 -472 -275 -393 10 24
DS -275 -393 -275 -275 10 24
DS -275 -275 -275 1673 10 24
DS -275 1673 -275 1692 10 24
DS -39 452 -39 531 10 24
DS -39 531 -39 649 10 24
DS -39 649 -39 1673 10 24
DS -39 1673 -39 1692 10 24
DS -4055 -472 -4055 -393 10 24
DS -4055 -393 -4055 -275 10 24
DS -4055 -275 -4055 1673 10 24
DS -4055 1673 -4055 1692 10 24
DS -2637 452 -2637 531 10 24
DS -2637 531 -2637 649 10 24
DS -2637 649 -2637 1692 10 24
DS 1299 -925 1377 -925 10 24
DS -5511 -1062 -5511 118 10 24
DS -8405 -1062 -8090 -1062 10 24
DS -8090 -1062 -7913 -1062 10 24
DS -7913 -1062 -6791 -1062 10 24
DS -6791 -1062 -6712 -1062 10 24
DS -6712 -1062 -6476 -1062 10 24
DS -6476 -1062 -6358 -1062 10 24
DS 8405 1692 8405 2086 10 24
DS 8405 2086 8405 2559 10 24
DS 5905 -1062 5590 -1062 10 24
DS 5590 -1062 5511 -1062 10 24
DS -433 0 -433 78 10 24
DS -433 78 -433 196 10 24
DS -433 196 -433 1673 10 24
DS -433 1673 -433 1692 10 24
DS -196 -472 -196 -393 10 24
DS -196 -393 -196 -275 10 24
DS -196 -275 -196 1673 10 24
DS -196 1673 -196 1692 10 24
DS -3937 2007 -3937 1791 10 24
DS -3110 -925 -3031 -925 10 24
DS -393 2244 -393 2460 10 24
DS 3937 2244 3937 2460 10 24
DS -2322 0 -2322 78 10 24
DS -2322 78 -2322 196 10 24
DS -2322 196 -2322 1692 10 24
DS 4606 0 4606 78 10 24
DS 4606 78 4606 196 10 24
DS 4606 196 4606 1673 10 24
DS 4606 1673 4606 1692 10 24
DS -3543 1692 -3031 1692 10 24
DS -3031 1692 -2952 1692 10 24
DS -2952 1692 -2874 1692 10 24
DS -2874 1692 -2480 1692 10 24
DS -2480 1692 -2244 1692 10 24
DS -2244 1692 -1535 1692 10 24
DS -1535 1692 -905 1692 10 24
DS -905 1692 -826 1692 10 24
DS -826 1692 -787 1692 10 24
DS 3543 1692 3661 1692 10 24
DS 3661 1692 4448 1692 10 24
DS 4448 1692 4527 1692 10 24
DS 4527 1692 4685 1692 10 24
DS 4685 1692 4763 1692 10 24
DS 4763 1692 4842 1692 10 24
DS 4842 1692 4921 1692 10 24
DS 4921 1692 5000 1692 10 24
DS 5000 1692 5118 1692 10 24
DS -8090 -1062 -8090 1299 10 24
DS 8405 1692 7913 1692 10 24
DS 7913 1692 6791 1692 10 24
DS 6791 1692 6732 1692 10 24
DS 6732 1692 6476 1692 10 24
DS 6476 1692 6358 1692 10 24
DS 6358 -1062 6476 -1062 10 24
DS 6476 -1062 6712 -1062 10 24
DS -590 -925 -590 -846 10 24
DS -590 -846 -590 -728 10 24
DS -590 -728 -590 1673 10 24
DS -590 1673 -590 1692 10 24
DS -354 0 -354 78 10 24
DS -354 78 -354 196 10 24
DS -354 196 -354 1673 10 24
DS -354 1673 -354 1692 10 24
DS -4370 -925 -4370 -846 10 24
DS -4370 -846 -4370 -728 10 24
DS -4370 -728 -4370 1673 10 24
DS -4370 1673 -4370 1692 10 24
DS -2165 -472 -2086 -472 10 24
DS -2244 0 -2244 78 10 24
DS -2244 78 -2244 196 10 24
DS -2244 196 -2244 1692 10 24
DS 4685 0 4685 78 10 24
DS 4685 78 4685 196 10 24
DS 4685 196 4685 1673 10 24
DS 4685 1673 4685 1692 10 24
DS 6811 -354 7992 -354 10 24
DS 826 0 905 0 10 24
DS -6712 -1062 -6712 1299 10 24
DS 5118 1692 5590 1692 10 24
DS 5590 1692 5905 1692 10 24
DS -748 452 -748 531 10 24
DS -748 531 -748 649 10 24
DS -748 649 -748 1673 10 24
DS -748 1673 -748 1692 10 24
DS -511 -925 -511 -846 10 24
DS -511 -846 -511 -728 10 24
DS -511 -728 -511 1673 10 24
DS -511 1673 -511 1692 10 24
DS -4999 -925 -4921 -925 10 24
DS -4724 2460 -3937 2460 10 24
DS 4763 -472 4842 -472 10 24
DS 4763 -472 4763 -393 10 24
DS 4763 -393 4763 -275 10 24
DS 4763 -275 4763 1673 10 24
DS 4763 1673 4763 1692 10 24
DS 4921 452 4921 531 10 24
DS 4921 531 4921 649 10 24
DS 4921 649 4921 1673 10 24
DS 4921 1673 4921 1692 10 24
DS -6811 1299 -6811 -846 10 24
DS -787 2559 -787 2657 10 24
DS 5905 118 5511 118 10 24
DS 8090 -1062 8405 -1062 10 24
DS -905 -472 -905 -393 10 24
DS -905 -393 -905 -275 10 24
DS -905 -275 -905 1692 10 24
DS -669 452 -669 531 10 24
DS -669 531 -669 649 10 24
DS -669 649 -669 1673 10 24
DS -669 1673 -669 1692 10 24
DS 4606 0 4685 0 10 24
DS -1062 0 -984 0 10 24
DS -4055 -472 -3976 -472 10 24
DS 2716 0 2795 0 10 24
DS 3267 -925 3267 -846 10 24
DS 3267 -846 3267 -728 10 24
DS 3267 -728 3267 1692 10 24
DS 3346 0 3425 0 10 24
DS 393 2460 393 2244 10 24
DS 393 2007 393 1791 10 24
DS -2874 0 -2874 78 10 24
DS -2874 78 -2874 196 10 24
DS -2874 196 -2874 1692 10 24
DS 3661 452 3661 531 10 24
DS 3661 531 3661 649 10 24
DS 3661 649 3661 1673 10 24
DS 3661 1673 3661 1692 10 24
DS -393 2007 -393 2023 10 24
DS -393 2023 -393 2228 10 24
DS -393 2228 -393 2244 10 24
DS -3031 -925 -3031 -846 10 24
DS -3031 -846 -3031 -728 10 24
DS -3031 -728 -3031 1692 10 24
DS 4448 -925 4448 -846 10 24
DS 4448 -846 4448 -728 10 24
DS 4448 -728 4448 1673 10 24
DS 4448 1673 4448 1692 10 24
DS 4842 -472 4842 -393 10 24
DS 4842 -393 4842 -275 10 24
DS 4842 -275 4842 1673 10 24
DS 4842 1673 4842 1692 10 24
DS 5000 452 5000 531 10 24
DS 5000 531 5000 649 10 24
DS 5000 649 5000 1673 10 24
DS 5000 1673 5000 1692 10 24
DS -7992 1299 -7992 -846 10 24
DS -3543 2559 -3543 2657 10 24
DS 787 2657 3543 2657 10 24
DS -826 -472 -826 -393 10 24
DS -826 -393 -826 -275 10 24
DS -826 -275 -826 1692 10 24
DS -4999 -925 -4999 -846 10 24
DS -4999 -846 -4999 -728 10 24
DS -4999 -728 -4999 1673 10 24
DS -4999 1673 -4999 1692 10 24
DS 3188 -925 3188 -846 10 24
DS 3188 -846 3188 -728 10 24
DS 3188 -728 3188 1692 10 24
DS -3425 -472 -3346 -472 10 24
DS -5236 -472 -5236 -393 10 24
DS -5236 -393 -5236 -275 10 24
DS -5236 -275 -5236 1692 10 24
DS 4527 -925 4527 -846 10 24
DS 4527 -846 4527 -728 10 24
DS 4527 -728 4527 1673 10 24
DS 4527 1673 4527 1692 10 24
DS 5118 2559 5118 2657 10 24
DS 393 2007 393 2023 10 24
DS 393 2023 393 2228 10 24
DS 393 2228 393 2244 10 24
DS 1141 452 1141 531 10 24
DS 1141 531 1141 649 10 24
DS 1141 649 1141 1692 10 24
DS -2007 452 -1929 452 10 24
DS 1614 -472 1692 -472 10 24
DS 669 -925 669 -846 10 24
DS 669 -846 669 -728 10 24
DS 669 -728 669 1673 10 24
DS 669 1673 669 1692 10 24
DS -2952 0 -2952 78 10 24
DS -2952 78 -2952 196 10 24
DS -2952 196 -2952 1692 10 24
DS -3543 2559 -787 2559 10 24
DS -5905 -1062 -5590 -1062 10 24
DS -5590 -1062 -5511 -1062 10 24
DS 354 -472 354 -393 10 24
DS 354 -393 354 -275 10 24
DS 354 -275 354 1673 10 24
DS 354 1673 354 1692 10 24
DS 3543 2559 3543 2657 10 24
DS -4724 2244 -3937 2244 10 24
DS 2952 -472 2952 -393 10 24
DS 2952 -393 2952 -275 10 24
DS 2952 -275 2952 1692 10 24
DS 3110 452 3110 531 10 24
DS 3110 531 3110 649 10 24
DS 3110 649 3110 1692 10 24
DS 3661 452 3740 452 10 24
DS -2480 -925 -2480 -846 10 24
DS -2480 -846 -2480 -728 10 24
DS -2480 -728 -2480 1692 10 24
DS 748 -925 748 -846 10 24
DS 748 -846 748 -728 10 24
DS 748 -728 748 1673 10 24
DS 748 1673 748 1692 10 24
DS 787 2559 787 2657 10 24
DS 8405 -1062 8405 -177 10 24
DS 8405 -177 8405 1692 10 24
DS -8405 2559 -7814 2559 10 24
DS -7814 2559 -7027 2559 10 24
DS -7027 2559 -5118 2559 10 24
DS -8405 2657 -7913 2657 10 24
DS -7913 2657 -6929 2657 10 24
DS -6929 2657 -6791 2657 10 24
DS -6791 2657 -6230 2657 10 24
DS -6230 2657 -6193 2657 10 24
DS -6193 2657 -5925 2657 10 24
DS -5925 2657 -5836 2657 10 24
DS -5836 2657 -5568 2657 10 24
DS -5568 2657 -5118 2657 10 24
DS -1535 -472 -1535 -393 10 24
DS -1535 -393 -1535 -275 10 24
DS -1535 -275 -1535 1692 10 24
DS -905 -472 -826 -472 10 24
DS 5118 2657 5568 2657 10 24
DS 5568 2657 5836 2657 10 24
DS 5836 2657 5925 2657 10 24
DS 5925 2657 6193 2657 10 24
DS 6193 2657 6230 2657 10 24
DS 6230 2657 6594 2657 10 24
DS 6594 2657 6791 2657 10 24
DS 6791 2657 6929 2657 10 24
DS 6929 2657 7913 2657 10 24
DS 7913 2657 8405 2657 10 24
DS -8405 1692 -8405 2086 10 24
DS -8405 2086 -8405 2559 10 24
DS 6230 2657 6230 4625 10 24
DS -6230 2657 -6230 4625 10 24
DS -127 3439 -127 4009 10 24
DS -127 4009 -127 4413 10 24
DS 1860 3439 1860 4009 10 24
DS 1860 4009 1860 4413 10 24
DS -4842 78 -4763 78 10 24
DS 2401 531 2480 531 10 24
DS -1848 -807 -1848 -964 10 24
DS 3742 570 3663 570 10 24
DS -1533 -354 -1533 -511 10 24
DS -442 3439 -344 3439 10 24
DS -2234 3439 -2234 4009 10 24
DS -2234 4009 -2234 4413 10 24
DS 6372 -118 6372 -59 10 24
DS 6372 -59 6372 59 10 24
DS 6372 59 6372 118 10 24
DS -7814 2559 -7814 2086 10 24
DS 8405 2086 7814 2086 10 24
DS 7814 2086 7027 2086 10 24
DS 7027 2086 6732 2086 10 24
DS -1702 4413 -1604 4413 10 24
DS 6476 -196 6791 -196 10 24
DS 1458 -39 1537 -39 10 24
DS -273 -511 -194 -511 10 24
DS -273 -354 -273 -511 10 24
DS -37 413 -37 570 10 24
DS 4293 570 4293 413 10 24
DS 4529 -807 4450 -807 10 24
DS -442 4413 -344 4413 10 24
DS 2167 118 2088 118 10 24
DS 3978 -39 4057 -39 10 24
DS 4057 118 3978 118 10 24
DS -2242 -39 -2242 118 10 24
DS 3976 78 4055 78 10 24
DS -2322 78 -2244 78 10 24
DS 4765 -354 4765 -511 10 24
DS 1761 3439 1860 3439 10 24
DS 4281 4413 4379 4413 10 24
DS -982 118 -1061 118 10 24
DS -757 3439 -757 4009 10 24
DS -757 4009 -757 4413 10 24
DS 2088 -39 2167 -39 10 24
DS 1141 531 1220 531 10 24
DS 2954 -354 2875 -354 10 24
DS -5312 -511 -5234 -511 10 24
DS 6732 1692 6732 2086 10 24
DS 6446 118 6372 118 10 24
DS -7027 2559 -7027 2086 10 24
DS 6368 196 6446 196 10 24
DS 6476 -196 6476 -1062 10 24
DS 198 -39 277 -39 10 24
DS 198 118 198 -39 10 24
DS -194 -511 -194 -354 10 24
DS -194 -354 -273 -354 10 24
DS -905 -393 -826 -393 10 24
DS 4687 118 4608 118 10 24
DS 3505 -511 3584 -511 10 24
DS -3582 78 -3503 78 10 24
DS -2950 118 -2950 -39 10 24
DS 5001 413 5001 570 10 24
DS 2246 -511 2324 -511 10 24
DS -4289 -964 -4289 -807 10 24
DS -1690 -39 -1612 -39 10 24
DS 1230 3439 1230 4009 10 24
DS 1230 4009 1230 4413 10 24
DS -2950 -39 -2872 -39 10 24
DS -659 3439 -659 4009 10 24
DS -659 4009 -659 4413 10 24
DS -1692 78 -1614 78 10 24
DS -1061 -39 -982 -39 10 24
DS -4840 118 -4840 -39 10 24
DS 5234 78 5312 78 10 24
DS 41 -964 120 -964 10 24
DS 41 -807 41 -964 10 24
DS 277 -39 277 118 10 24
DS 277 118 198 118 10 24
DS 5080 -807 5080 -964 10 24
DS 187 3439 187 4009 10 24
DS 187 4009 187 4413 10 24
DS 4923 570 4923 413 10 24
DS 4911 3439 5009 3439 10 24
DS -4368 -807 -4368 -964 10 24
DS -4527 531 -4448 531 10 24
DS -1612 118 -1690 118 10 24
DS -3029 -807 -3108 -807 10 24
DS 4694 3439 4694 4009 10 24
DS 4694 4009 4694 4413 10 24
DS 5009 3439 5009 4009 10 24
DS 5009 4009 5009 4413 10 24
DS 1931 -964 2009 -964 10 24
DS -1072 4413 -974 4413 10 24
DS -4761 -39 -4761 118 10 24
DS -5155 570 -5155 413 10 24
DS 6446 -118 6372 -118 10 24
DS 513 413 592 413 10 24
DS 513 570 513 413 10 24
DS 1301 -807 1301 -964 10 24
DS 120 -964 120 -807 10 24
DS 120 -807 41 -807 10 24
DS -1297 413 -1297 570 10 24
DS 2716 78 2795 78 10 24
DS -2320 118 -2320 -39 10 24
DS 4281 3439 4281 4009 10 24
DS 4281 4009 4281 4413 10 24
DS -5157 531 -5078 531 10 24
DS 2246 -354 2246 -511 10 24
DS 2482 413 2482 570 10 24
DS 3427 118 3348 118 10 24
DS 3112 570 3033 570 10 24
DS -2017 3439 -1919 3439 10 24
DS -4919 -807 -4998 -807 10 24
DS -509 -807 -588 -807 10 24
DS 6594 2657 6594 2559 10 24
DS 6791 2460 6791 2559 10 24
DS -6368 196 -6446 196 10 24
DS -6446 196 -6476 196 10 24
DS -6476 196 -6722 196 10 24
DS 356 -511 435 -511 10 24
DS 356 -354 356 -511 10 24
DS 592 413 592 570 10 24
DS 592 570 513 570 10 24
DS -2163 -354 -2163 -511 10 24
DS 5238 118 5238 -39 10 24
DS -3974 -354 -4053 -354 10 24
DS -4210 -39 -4131 -39 10 24
DS 3651 4413 3750 4413 10 24
DS 4911 3439 4911 4009 10 24
DS 4911 4009 4911 4413 10 24
DS 2167 -39 2167 118 10 24
DS -4525 413 -4446 413 10 24
DS -431 -39 -352 -39 10 24
DS 6368 196 6368 135 10 24
DS 6368 135 6368 105 10 24
DS 6368 105 6368 57 10 24
DS 6368 57 6368 32 10 24
DS 6368 32 6368 -32 10 24
DS 6368 -32 6368 -57 10 24
DS 6368 -57 6368 -105 10 24
DS 6368 -105 6368 -135 10 24
DS 6368 -135 6368 -196 10 24
DS -1604 3439 -1604 4009 10 24
DS -1604 4009 -1604 4413 10 24
DS -6791 -196 -6476 -196 10 24
DS -6476 -196 -6446 -196 10 24
DS -6446 -196 -6368 -196 10 24
DS 828 118 828 -39 10 24
DS 6791 -1062 6791 -433 10 24
DS 435 -511 435 -354 10 24
DS 435 -354 356 -354 10 24
DS -4852 3439 -4753 3439 10 24
DS 4923 413 5001 413 10 24
DS -3740 -846 -3661 -846 10 24
DS 4281 3439 4379 3439 10 24
DS -3425 -393 -3346 -393 10 24
DS 4291 531 4370 531 10 24
DS 3348 118 3348 -39 10 24
DS -4683 -354 -4683 -511 10 24
DS -5312 -354 -5312 -511 10 24
DS 5590 255 6102 255 10 24
DS 6791 2460 5334 2460 10 24
DS 6476 -196 6446 -196 10 24
DS 6446 -196 6368 -196 10 24
DS 907 -39 907 118 10 24
DS 907 118 828 118 10 24
DS 1616 -354 1616 -511 10 24
DS -1297 570 -1375 570 10 24
DS 1761 3439 1761 4009 10 24
DS 1761 4009 1761 4413 10 24
DS 1694 -354 1616 -354 10 24
DS 3663 413 3742 413 10 24
DS 1131 3439 1131 4009 10 24
DS 1131 4009 1131 4413 10 24
DS 2175 3439 2175 4009 10 24
DS 2175 4009 2175 4413 10 24
DS 4064 3439 4064 4009 10 24
DS 4064 4009 4064 4413 10 24
DS 4448 -846 4527 -846 10 24
DS -4604 -511 -4604 -354 10 24
DS -5234 -511 -5234 -354 10 24
DS 3543 1692 3543 1673 10 24
DS -1289 3439 -1289 4009 10 24
DS -1289 4009 -1289 4413 10 24
DS 750 -807 671 -807 10 24
DS -7913 -433 -6791 -433 10 24
DS 5316 118 5238 118 10 24
DS -1375 570 -1375 413 10 24
DS 2076 4413 2175 4413 10 24
DS 4844 -511 4844 -354 10 24
DS 6269 135 6269 57 10 24
DS 6269 57 6269 -57 10 24
DS 6269 -57 6269 -135 10 24
DS 1929 -846 2007 -846 10 24
DS 5001 570 4923 570 10 24
DS -3187 570 -3265 570 10 24
DS 3966 4413 4064 4413 10 24
DS 4911 4413 5009 4413 10 24
DS -4131 118 -4210 118 10 24
DS -588 -807 -588 -964 10 24
DS -4761 118 -4840 118 10 24
DS 7027 2559 7027 2086 10 24
DS 5118 1692 5118 1673 10 24
DS -6791 1712 -6791 2460 10 24
DS -6791 2460 -6791 2657 10 24
DS -6791 -433 -6791 -196 10 24
DS 8307 809 8188 809 10 24
DS 8188 809 7913 809 10 24
DS -4537 3439 -4438 3439 10 24
DS 2391 4413 2490 4413 10 24
DS 4765 -511 4844 -511 10 24
DS 1446 3439 1545 3439 10 24
DS 2718 -39 2797 -39 10 24
DS -5511 118 -5511 1673 10 24
DS -903 -354 -903 -511 10 24
DS 1222 413 1222 570 10 24
DS 5238 -39 5316 -39 10 24
DS -2005 570 -2005 413 10 24
DS -1848 -964 -1769 -964 10 24
DS -2320 -39 -2242 -39 10 24
DS -1612 -39 -1612 118 10 24
DS 3190 -964 3269 -964 10 24
DS 4608 -39 4687 -39 10 24
DS -2084 -511 -2084 -354 10 24
DS 1761 4413 1860 4413 10 24
DS -2872 -39 -2872 118 10 24
DS 4596 3439 4596 4009 10 24
DS 4596 4009 4596 4413 10 24
DS 2875 -354 2875 -511 10 24
DS -509 -964 -509 -807 10 24
DS -6791 1712 -5334 1712 10 24
DS -6446 -118 -6372 -118 10 24
DS -5334 1712 -5334 2460 10 24
DS -352 118 -431 118 10 24
DS -3543 1692 -3543 1673 10 24
DS -6722 480 -6791 480 10 24
DS 8188 986 8188 965 10 24
DS 8188 965 8188 951 10 24
DS 8188 951 8188 868 10 24
DS 8188 868 8188 817 10 24
DS 8188 817 8188 809 10 24
DS -590 -846 -511 -846 10 24
DS -1535 -393 -1456 -393 10 24
DS 2490 3439 2490 4009 10 24
DS 2490 4009 2490 4413 10 24
DS 1773 570 1773 413 10 24
DS 2805 3439 2805 4009 10 24
DS 2805 4009 2805 4413 10 24
DS 393 2228 -393 2228 10 24
DS 5159 -807 5080 -807 10 24
DS -1927 570 -2005 570 10 24
DS 3190 -807 3190 -964 10 24
DS -2952 78 -2874 78 10 24
DS -757 3439 -659 3439 10 24
DS 1931 -807 1931 -964 10 24
DS 5590 255 5590 -1062 10 24
DS 7913 1261 8188 1261 10 24
DS 8188 1261 8307 1261 10 24
DS 511 531 590 531 10 24
DS 285 3439 285 4009 10 24
DS 285 4009 285 4413 10 24
DS 2391 3439 2391 4009 10 24
DS 2391 4009 2391 4413 10 24
DS 1131 3439 1230 3439 10 24
DS -3816 413 -3816 570 10 24
DS -3501 118 -3580 118 10 24
DS -1375 413 -1297 413 10 24
DS 2482 570 2403 570 10 24
DS -1072 3439 -1072 4009 10 24
DS -1072 4009 -1072 4413 10 24
DS 6102 1692 5905 1692 10 24
DS 826 78 905 78 10 24
DS 8405 -177 7913 -177 10 24
DS 354 -393 433 -393 10 24
DS 1064 -354 986 -354 10 24
DS -748 531 -669 531 10 24
DS 1771 531 1850 531 10 24
DS -5314 -393 -5236 -393 10 24
DS 828 -39 907 -39 10 24
DS -3895 570 -3895 413 10 24
DS -3659 -964 -3659 -807 10 24
DS -37 570 -116 570 10 24
DS -2647 4413 -2549 4413 10 24
DS 669 -846 748 -846 10 24
DS 8307 722 8307 723 10 24
DS 8307 723 8307 736 10 24
DS 8307 736 8307 787 10 24
DS 8307 787 8307 809 10 24
DS -6791 480 -6791 1692 10 24
DS -8307 1348 -8307 1347 10 24
DS -8307 1347 -8307 1334 10 24
DS -8307 1334 -8307 1283 10 24
DS -8307 1283 -8307 1261 10 24
DS -8307 1261 -8307 1253 10 24
DS -8307 1253 -8307 1202 10 24
DS -8307 1202 -8307 1119 10 24
DS -8307 1119 -8307 1105 10 24
DS -8307 1105 -8307 1084 10 24
DS -8307 1084 -8307 986 10 24
DS -8307 986 -8307 965 10 24
DS -8307 965 -8307 951 10 24
DS -8307 951 -8307 868 10 24
DS -8307 868 -8307 817 10 24
DS -8307 817 -8307 809 10 24
DS -8307 809 -8307 787 10 24
DS -8307 787 -8307 736 10 24
DS -8307 736 -8307 723 10 24
DS -8307 723 -8307 722 10 24
DS 196 78 275 78 10 24
DS 4057 -39 4057 118 10 24
DS 3188 -846 3267 -846 10 24
DS 2874 -393 2952 -393 10 24
DS 2706 3439 2706 4009 10 24
DS 2706 4009 2706 4413 10 24
DS -1690 118 -1690 -39 10 24
DS -1769 -807 -1848 -807 10 24
DS 2076 3439 2076 4009 10 24
DS 2076 4009 2076 4413 10 24
DS 3966 3439 3966 4009 10 24
DS 3966 4009 3966 4413 10 24
DS -2795 -393 -2716 -393 10 24
DS 2561 -807 2561 -964 10 24
DS -1702 3439 -1604 3439 10 24
DS -6791 1712 -6791 1692 10 24
DS 3543 1673 3582 1673 10 24
DS 3661 1673 3740 1673 10 24
DS 3818 1673 3897 1673 10 24
DS 3976 1673 4055 1673 10 24
DS 4133 1673 4212 1673 10 24
DS 4291 1673 4370 1673 10 24
DS 4448 1673 4527 1673 10 24
DS 4606 1673 4685 1673 10 24
DS 4763 1673 4842 1673 10 24
DS 4921 1673 5000 1673 10 24
DS 5078 1673 5118 1673 10 24
DS 8307 1261 8307 1283 10 24
DS 8307 1283 8307 1334 10 24
DS 8307 1334 8307 1347 10 24
DS 8307 1347 8307 1348 10 24
DS -787 1673 -3543 1673 10 24
DS 39 -846 118 -846 10 24
DS 1064 -511 1064 -354 10 24
DS -1769 -964 -1769 -807 10 24
DS 2706 3439 2805 3439 10 24
DS 501 4413 600 4413 10 24
DS 2076 3439 2175 3439 10 24
DS -4368 -964 -4289 -964 10 24
DS -4685 -393 -4606 -393 10 24
DS -2793 -511 -2714 -511 10 24
DS 3269 -807 3190 -807 10 24
DS -3738 -807 -3738 -964 10 24
DS 5078 -846 5157 -846 10 24
DS 984 -393 1062 -393 10 24
DS -824 -354 -903 -354 10 24
DS -8307 1084 -8188 1084 10 24
DS 5511 1673 5118 1673 10 24
DS 7913 1261 7913 1692 10 24
DS 6791 -433 7913 -433 10 24
DS -118 531 -39 531 10 24
DS 3820 -964 3899 -964 10 24
DS -2165 -393 -2086 -393 10 24
DS 600 3439 600 4009 10 24
DS 600 4009 600 4413 10 24
DS 2403 413 2482 413 10 24
DS 3031 531 3110 531 10 24
DS 3427 -39 3427 118 10 24
DS -1533 -511 -1454 -511 10 24
DS -5590 -1062 -5590 255 10 24
DS -5590 255 -5590 1692 10 24
DS -6368 196 -6368 135 10 24
DS -6368 135 -6368 105 10 24
DS -6368 105 -6368 57 10 24
DS -6368 57 -6368 32 10 24
DS -6368 32 -6368 -32 10 24
DS -6368 -32 -6368 -57 10 24
DS -6368 -57 -6368 -105 10 24
DS -6368 -105 -6368 -135 10 24
DS -6368 -135 -6368 -196 10 24
DS 8188 722 8188 723 10 24
DS 8188 723 8188 736 10 24
DS 8188 736 8188 787 10 24
DS 8188 787 8188 809 10 24
DS -6722 196 -6722 480 10 24
DS -275 -393 -196 -393 10 24
DS -6791 -1062 -6791 -433 10 24
DS 393 2023 -393 2023 10 24
DS 986 -511 1064 -511 10 24
DS 3336 3439 3336 4009 10 24
DS 3336 4009 3336 4413 10 24
DS 915 3439 915 4009 10 24
DS 915 4009 915 4413 10 24
DS -2635 570 -2635 413 10 24
DS 3584 -511 3584 -354 10 24
DS -2084 -354 -2163 -354 10 24
DS -3974 -511 -3974 -354 10 24
DS -1850 -846 -1771 -846 10 24
DS -1061 118 -1061 -39 10 24
DS -1387 4413 -1289 4413 10 24
DS -5905 1692 -6102 1692 10 24
DS -433 78 -354 78 10 24
DS -7913 1692 -7913 1261 10 24
DS 3820 -807 3820 -964 10 24
DS -4212 78 -4133 78 10 24
DS -5167 3439 -5068 3439 10 24
DS 4529 -964 4529 -807 10 24
DS -2399 -964 -2399 -807 10 24
DS -974 3439 -974 4009 10 24
DS -974 4009 -974 4413 10 24
DS 4921 531 5000 531 10 24
DS -6289 135 -6368 135 10 24
DS 6791 1692 6791 1712 10 24
DS 6791 1712 6791 2460 10 24
DS -1387 3439 -1289 3439 10 24
DS -6476 1692 -6476 196 10 24
DS -8188 1283 -8188 1334 10 24
DS -8188 1334 -8188 1347 10 24
DS -8188 1347 -8188 1348 10 24
DS -7913 809 -7913 -177 10 24
DS -4210 118 -4210 -39 10 24
DS 5316 -39 5316 118 10 24
DS -4753 3439 -4753 4009 10 24
DS -4753 4009 -4753 4413 10 24
DS -2635 413 -2557 413 10 24
DS -4055 -393 -3976 -393 10 24
DS 3651 3439 3651 4009 10 24
DS 3651 4009 3651 4413 10 24
DS 2391 3439 2490 3439 10 24
DS 3021 3439 3120 3439 10 24
DS 2706 4413 2805 4413 10 24
DS -4053 -354 -4053 -511 10 24
DS -1139 -807 -1218 -807 10 24
DS 2639 -964 2639 -807 10 24
DS 4724 2023 3937 2023 10 24
DS 5590 1692 5590 255 10 24
DS -2332 3439 -2234 3439 10 24
DS 1458 118 1458 -39 10 24
DS 4214 -511 4214 -354 10 24
DS 3651 3439 3750 3439 10 24
DS 816 3439 816 4009 10 24
DS 816 4009 816 4413 10 24
DS 2559 -846 2637 -846 10 24
DS -3344 -354 -3423 -354 10 24
DS 4596 3439 4694 3439 10 24
DS -2007 531 -1929 531 10 24
DS 3269 -964 3269 -807 10 24
DS -982 -39 -982 118 10 24
DS 4724 2228 3937 2228 10 24
DS -6289 -135 -6289 -57 10 24
DS -6289 -57 -6289 57 10 24
DS -6289 57 -6289 135 10 24
DS -5155 413 -5076 413 10 24
DS -2017 3439 -2017 4009 10 24
DS -2017 4009 -2017 4413 10 24
DS -8188 986 -8307 986 10 24
DS 7913 -1062 7913 -433 10 24
DS -2647 3439 -2549 3439 10 24
DS -2647 3439 -2647 4009 10 24
DS -2647 4009 -2647 4413 10 24
DS 501 3439 501 4009 10 24
DS 501 4009 501 4413 10 24
DS 816 3439 915 3439 10 24
DS 4687 -39 4687 118 10 24
DS -5167 4413 -5068 4413 10 24
DS -3110 -846 -3031 -846 10 24
DS -6289 -135 -6368 -135 10 24
DS -5076 570 -5155 570 10 24
DS -6446 -196 -6446 -105 10 24
DS -6446 -105 -6446 -59 10 24
DS -6446 -59 -6446 -32 10 24
DS -6446 -32 -6446 32 10 24
DS -6446 32 -6446 59 10 24
DS -6446 59 -6446 105 10 24
DS -6446 105 -6446 118 10 24
DS -6446 118 -6446 196 10 24
DS 1379 -964 1379 -807 10 24
DS -2962 3439 -2864 3439 10 24
DS -2962 3439 -2962 4009 10 24
DS -2962 4009 -2962 4413 10 24
DS -2549 3439 -2549 4009 10 24
DS -2549 4009 -2549 4413 10 24
DS -127 4413 -29 4413 10 24
DS -3659 -807 -3738 -807 10 24
DS -3580 -39 -3501 -39 10 24
DS 2403 570 2403 413 10 24
DS 1616 -511 1694 -511 10 24
DS -3937 2228 -4724 2228 10 24
DS 8188 1261 8188 1283 10 24
DS 8188 1283 8188 1334 10 24
DS 8188 1334 8188 1347 10 24
DS 8188 1347 8188 1348 10 24
DS 3543 1673 787 1673 10 24
DS -3277 3439 -3179 3439 10 24
DS -3277 3439 -3277 4009 10 24
DS -3277 4009 -3277 4413 10 24
DS -2864 3439 -2864 4009 10 24
DS -2864 4009 -2864 4413 10 24
DS -2962 4413 -2864 4413 10 24
DS 4450 -807 4450 -964 10 24
DS 750 -964 750 -807 10 24
DS -4370 -846 -4291 -846 10 24
DS 5159 -964 5159 -807 10 24
DS 3742 413 3742 570 10 24
DS -4289 -807 -4368 -807 10 24
DS -3937 2023 -4724 2023 10 24
DS 8188 1261 8188 1253 10 24
DS 8188 1253 8188 1202 10 24
DS 8188 1202 8188 1119 10 24
DS 8188 1119 8188 1105 10 24
DS 8188 1105 8188 1084 10 24
DS -748 1673 -669 1673 10 24
DS -590 1673 -511 1673 10 24
DS -433 1673 -393 1673 10 24
DS -393 1673 -354 1673 10 24
DS -275 1673 -196 1673 10 24
DS -118 1673 -39 1673 10 24
DS 39 1673 118 1673 10 24
DS 196 1673 275 1673 10 24
DS 354 1673 393 1673 10 24
DS 393 1673 433 1673 10 24
DS 511 1673 590 1673 10 24
DS 669 1673 748 1673 10 24
DS -3592 3439 -3494 3439 10 24
DS -3592 3439 -3592 4009 10 24
DS -3592 4009 -3592 4413 10 24
DS -3179 3439 -3179 4009 10 24
DS -3179 4009 -3179 4413 10 24
DS -3277 4413 -3179 4413 10 24
DS 1143 413 1222 413 10 24
DS 3336 4413 3435 4413 10 24
DS 3503 -393 3582 -393 10 24
DS -1927 413 -1927 570 10 24
DS -5076 413 -5076 570 10 24
DS -903 -511 -824 -511 10 24
DS -8188 722 -8188 723 10 24
DS -8188 723 -8188 736 10 24
DS -8188 736 -8188 787 10 24
DS -8188 787 -8188 809 10 24
DS -2017 4413 -1919 4413 10 24
DS -1072 3439 -974 3439 10 24
DS -4999 1673 -4921 1673 10 24
DS -4842 1673 -4763 1673 10 24
DS -4685 1673 -4606 1673 10 24
DS -4527 1673 -4448 1673 10 24
DS -4370 1673 -4291 1673 10 24
DS -4212 1673 -4133 1673 10 24
DS -4055 1673 -3976 1673 10 24
DS -3897 1673 -3818 1673 10 24
DS -3740 1673 -3661 1673 10 24
DS -3582 1673 -3543 1673 10 24
DS -3907 3439 -3809 3439 10 24
DS -3907 3439 -3907 4009 10 24
DS -3907 4009 -3907 4413 10 24
DS -3494 3439 -3494 4009 10 24
DS -3494 4009 -3494 4413 10 24
DS -3592 4413 -3494 4413 10 24
DS 4844 -354 4765 -354 10 24
DS -2872 118 -2950 118 10 24
DS 5629 2933 -5629 2933 10 24
DS 2797 -39 2797 118 10 24
DS 5226 4413 5324 4413 10 24
DS 2797 118 2718 118 10 24
DS 6269 135 6368 135 10 24
DS 2088 118 2088 -39 10 24
DS 3033 570 3033 413 10 24
DS -4131 -39 -4131 118 10 24
DS -6102 1692 -6102 255 10 24
DS -2332 4413 -2234 4413 10 24
DS 8188 1084 8307 1084 10 24
DS 6446 196 6446 105 10 24
DS 6446 105 6446 59 10 24
DS 6446 59 6446 32 10 24
DS 6446 32 6446 -32 10 24
DS 6446 -32 6446 -59 10 24
DS 6446 -59 6446 -105 10 24
DS 6446 -105 6446 -196 10 24
DS -7913 809 -8188 809 10 24
DS -8188 809 -8307 809 10 24
DS -4222 3439 -4222 4009 10 24
DS -4222 4009 -4222 4413 10 24
DS -3809 3439 -3809 4009 10 24
DS -3809 4009 -3809 4413 10 24
DS -3907 4413 -3809 4413 10 24
DS -2714 -354 -2793 -354 10 24
DS 3435 3439 3435 4009 10 24
DS 3435 4009 3435 4413 10 24
DS 3818 -846 3897 -846 10 24
DS 3966 3439 4064 3439 10 24
DS 3120 3439 3120 4009 10 24
DS 3120 4009 3120 4413 10 24
DS -3895 413 -3816 413 10 24
DS -127 3439 -29 3439 10 24
DS 2561 -964 2639 -964 10 24
DS -7913 2657 -7814 2559 10 24
DS -6476 -1062 -6476 -196 10 24
DS -4124 3439 -4124 4009 10 24
DS -4124 4009 -4124 4413 10 24
DS -4222 4413 -4124 4413 10 24
DS 671 -964 750 -964 10 24
DS 187 4413 285 4413 10 24
DS 1773 413 1852 413 10 24
DS -4537 3439 -4537 4009 10 24
DS -4537 4009 -4537 4413 10 24
DS -3267 531 -3188 531 10 24
DS -3816 570 -3895 570 10 24
DS 1545 3439 1545 4009 10 24
DS 1545 4009 1545 4413 10 24
DS 3348 -39 3427 -39 10 24
DS -5068 3439 -5068 4009 10 24
DS -5068 4009 -5068 4413 10 24
DS 5226 3439 5324 3439 10 24
DS 1456 78 1535 78 10 24
DS 1299 -846 1377 -846 10 24
DS -6372 118 -6372 59 10 24
DS -6372 59 -6372 -59 10 24
DS -6372 -59 -6372 -118 10 24
DS -393 1476 393 1476 10 24
DS -8188 1283 -8307 1283 10 24
DS 6722 480 6722 196 10 24
DS -6929 2657 -7027 2559 10 24
DS -1387 3439 -1387 4009 10 24
DS -1387 4009 -1387 4413 10 24
DS -4438 3439 -4438 4009 10 24
DS -4438 4009 -4438 4413 10 24
DS -4537 4413 -4438 4413 10 24
DS 4606 78 4685 78 10 24
DS 1143 570 1143 413 10 24
DS -2793 -354 -2793 -511 10 24
DS -3344 -511 -3344 -354 10 24
DS -3897 531 -3818 531 10 24
DS 2086 78 2165 78 10 24
DS 3899 -964 3899 -807 10 24
DS -757 4413 -659 4413 10 24
DS -667 570 -746 570 10 24
DS 6269 -135 6368 -135 10 24
DS -6446 118 -6372 118 10 24
DS 6791 2657 6791 2559 10 24
DS -824 -511 -824 -354 10 24
DS -8188 809 -8188 817 10 24
DS -8188 817 -8188 868 10 24
DS -8188 868 -8188 951 10 24
DS -8188 951 -8188 965 10 24
DS -8188 965 -8188 986 10 24
DS -4852 4413 -4753 4413 10 24
DS -4852 3439 -4852 4009 10 24
DS -4852 4009 -4852 4413 10 24
DS 1222 570 1143 570 10 24
DS 4379 3439 4379 4009 10 24
DS 4379 4009 4379 4413 10 24
DS 4608 118 4608 -39 10 24
DS -2242 118 -2320 118 10 24
DS 3661 531 3740 531 10 24
DS 5226 3439 5226 4009 10 24
DS 5226 4009 5226 4413 10 24
DS -352 -39 -352 118 10 24
DS -8188 787 -8307 787 10 24
DS 1852 570 1773 570 10 24
DS 3899 -807 3820 -807 10 24
DS 187 3439 285 3439 10 24
DS -3108 -964 -3029 -964 10 24
DS 3505 -354 3505 -511 10 24
DS -3187 413 -3187 570 10 24
DS 4450 -964 4529 -964 10 24
DS 1131 4413 1230 4413 10 24
DS -5167 3439 -5167 4009 10 24
DS -5167 4009 -5167 4413 10 24
DS -344 3439 -344 4009 10 24
DS -344 4009 -344 4413 10 24
DS 3033 413 3112 413 10 24
DS 2009 -964 2009 -807 10 24
DS -1139 -964 -1139 -807 10 24
DS 6102 255 6102 1692 10 24
DS 8188 986 8307 986 10 24
DS -1218 -964 -1139 -964 10 24
DS 1379 -807 1301 -807 10 24
DS 501 3439 600 3439 10 24
DS -2163 -511 -2084 -511 10 24
DS -3423 -511 -3344 -511 10 24
DS -3423 -354 -3423 -511 10 24
DS 3750 3439 3750 4009 10 24
DS 3750 4009 3750 4413 10 24
DS -3265 570 -3265 413 10 24
DS 4214 -354 4135 -354 10 24
DS 3021 3439 3021 4009 10 24
DS 3021 4009 3021 4413 10 24
DS -2637 531 -2559 531 10 24
DS -4998 -964 -4919 -964 10 24
DS -4840 -39 -4761 -39 10 24
DS -6102 255 -5590 255 10 24
DS 5511 118 5511 1673 10 24
DS -7913 -1062 -7913 -433 10 24
DS -5629 4704 -5629 2933 10 24
DS 4135 -511 4214 -511 10 24
DS -3265 413 -3187 413 10 24
DS 3346 78 3425 78 10 24
DS -3501 -39 -3501 118 10 24
DS 1614 -393 1692 -393 10 24
DS 2324 -354 2246 -354 10 24
DS -4683 -511 -4604 -511 10 24
DS -4525 570 -4525 413 10 24
DS -2332 3439 -2332 4009 10 24
DS -2332 4009 -2332 4413 10 24
DS -4998 -807 -4998 -964 10 24
DS 5334 1712 6791 1712 10 24
DS -5078 1673 -5118 1673 10 24
DS -5118 1673 -5511 1673 10 24
DS 8188 787 8307 787 10 24
DS -8405 2086 -6732 2086 10 24
DS -746 570 -746 413 10 24
DS -8188 1084 -8188 1105 10 24
DS -8188 1105 -8188 1119 10 24
DS -8188 1119 -8188 1202 10 24
DS -8188 1202 -8188 1253 10 24
DS -8188 1253 -8188 1283 10 24
DS 8307 1261 8307 1253 10 24
DS 8307 1253 8307 1202 10 24
DS 8307 1202 8307 1119 10 24
DS 8307 1119 8307 1105 10 24
DS 8307 1105 8307 965 10 24
DS 8307 965 8307 951 10 24
DS 8307 951 8307 868 10 24
DS 8307 868 8307 817 10 24
DS 8307 817 8307 809 10 24
DS 5629 4704 5629 2933 10 24
DS 4293 413 4372 413 10 24
DS -29 3439 -29 4009 10 24
DS -29 4009 -29 4413 10 24
DS -4999 -846 -4921 -846 10 24
DS 671 -807 671 -964 10 24
DS -2557 413 -2557 570 10 24
DS -2478 -964 -2399 -964 10 24
DS -1377 531 -1299 531 10 24
DS -3738 -964 -3659 -964 10 24
DS -3580 118 -3580 -39 10 24
DS 816 4413 915 4413 10 24
DS -3108 -807 -3108 -964 10 24
DS 3336 3439 3435 3439 10 24
DS 2875 -511 2954 -511 10 24
DS 2639 -807 2561 -807 10 24
DS 4763 -393 4842 -393 10 24
DS -4446 413 -4446 570 10 24
DS -4919 -964 -4919 -807 10 24
DS -1919 3439 -1919 4009 10 24
DS -1919 4009 -1919 4413 10 24
DS -5234 -354 -5312 -354 10 24
DS -1702 3439 -1702 4009 10 24
DS -1702 4009 -1702 4413 10 24
DS 393 1476 393 1673 10 24
DS -5334 2460 -6791 2460 10 24
DS 6722 196 6476 196 10 24
DS 6476 196 6446 196 10 24
DS 7913 -177 7913 809 10 24
DS -1062 78 -984 78 10 24
DS 986 -354 986 -511 10 24
DS 1694 -511 1694 -354 10 24
DS -2005 413 -1927 413 10 24
DS -4222 3439 -4124 3439 10 24
DS 1301 -964 1379 -964 10 24
DS 3584 -354 3505 -354 10 24
DS 2244 -393 2322 -393 10 24
DS 1446 3439 1446 4009 10 24
DS 1446 4009 1446 4413 10 24
DS -2557 570 -2635 570 10 24
DS 3021 4413 3120 4413 10 24
DS 5324 3439 5324 4009 10 24
DS 5324 4009 5324 4413 10 24
DS 4133 -393 4212 -393 10 24
DS 3112 413 3112 570 10 24
DS -4604 -354 -4683 -354 10 24
DS -4446 570 -4525 570 10 24
DS 5334 2460 5334 1712 10 24
DS 6791 480 6722 480 10 24
DS -393 1673 -393 1476 10 24
DS 8188 1283 8307 1283 10 24
DS -8307 1261 -7913 1261 10 24
DS 1537 118 1458 118 10 24
DS 1446 4413 1545 4413 10 24
DS 1852 413 1852 570 10 24
DS 2718 118 2718 -39 10 24
DS 4372 570 4293 570 10 24
DS -4053 -511 -3974 -511 10 24
DS 3663 570 3663 413 10 24
DS 7814 2559 7814 2086 10 24
DS 6476 1692 6476 196 10 24
DS -6732 1692 -6732 2086 10 24
DS -5118 1692 -5118 1673 10 24
DS -667 413 -667 570 10 24
DS 6791 -196 6791 -433 10 24
DS 5080 -964 5159 -964 10 24
DS -2714 -511 -2714 -354 10 24
DS -3029 -964 -3029 -807 10 24
DS 4596 4413 4694 4413 10 24
DS -1454 -511 -1454 -354 10 24
DS -442 3439 -442 4009 10 24
DS -442 4009 -442 4413 10 24
DS 2009 -807 1931 -807 10 24
DS 6791 1692 6791 480 10 24
DS 7913 2657 7814 2559 10 24
DS 6929 2657 7027 2559 10 24
DS -588 -964 -509 -964 10 24
DS 4135 -354 4135 -511 10 24
DS 4372 413 4372 570 10 24
DS -1454 -354 -1533 -354 10 24
DS 3978 118 3978 -39 10 24
DS -2478 -807 -2478 -964 10 24
DS -2399 -807 -2478 -807 10 24
DS 2324 -511 2324 -354 10 24
DS 2954 -511 2954 -354 10 24
DS -1218 -807 -1218 -964 10 24
DS -2480 -846 -2401 -846 10 24
DS -431 118 -431 -39 10 24
DS -746 413 -667 413 10 24
DS -8405 -177 -7913 -177 10 24
DS -1220 -846 -1141 -846 10 24
DS -116 413 -37 413 10 24
DS -116 570 -116 413 10 24
DS 1537 -39 1537 118 10 24
DS -8307 1348 -8188 1348 10 24
DS 8188 722 8307 722 10 24
DS -8307 722 -8188 722 10 24
DS 8188 1348 8307 1348 10 24
DS -748 649 -669 649 10 24
DS -2007 649 -1929 649 10 24
DS -2480 -728 -2401 -728 10 24
DS 3188 -728 3267 -728 10 24
DS -5157 649 -5078 649 10 24
DS 3346 196 3425 196 10 24
DS 4606 196 4685 196 10 24
DS -2637 649 -2559 649 10 24
DS -1535 -275 -1456 -275 10 24
DS -3740 -728 -3661 -728 10 24
DS 1614 -275 1692 -275 10 24
DS -4999 -728 -4921 -728 10 24
DS 1299 -728 1377 -728 10 24
DS 5836 2657 5836 4625 10 24
DS 5836 4625 5836 4704 10 24
DS 5836 4625 5568 4625 10 24
DS 5568 4625 -5568 4625 10 24
DS -5568 4625 -5836 4625 10 24
DS -3897 649 -3818 649 10 24
DS -3267 649 -3188 649 10 24
DS -5836 4704 -5836 4625 10 24
DS -5836 4625 -5925 4625 10 24
DS -5925 4625 -6193 4625 10 24
DS -6193 4625 -6230 4625 10 24
DS 2401 649 2480 649 10 24
DS -1692 196 -1614 196 10 24
DS 3031 649 3110 649 10 24
DS 826 196 905 196 10 24
DS -4842 196 -4763 196 10 24
DS 2244 -275 2322 -275 10 24
DS -3425 -275 -3346 -275 10 24
DS 3818 -728 3897 -728 10 24
DS -2952 196 -2874 196 10 24
DS -2795 -275 -2716 -275 10 24
DS 4291 649 4370 649 10 24
DS 6230 4625 6193 4625 10 24
DS 6193 4625 5925 4625 10 24
DS 5925 4625 5836 4625 10 24
DS -4527 649 -4448 649 10 24
DS -4212 196 -4133 196 10 24
DS 4133 -275 4212 -275 10 24
DS 1771 649 1850 649 10 24
DS 354 -275 433 -275 10 24
DS 5234 196 5312 196 10 24
DS 196 196 275 196 10 24
DS 39 -728 118 -728 10 24
DS -1220 -728 -1141 -728 10 24
DS -905 -275 -826 -275 10 24
DS -4055 -275 -3976 -275 10 24
DS -118 649 -39 649 10 24
DS 1929 -728 2007 -728 10 24
DS 2559 -728 2637 -728 10 24
DS 3661 649 3740 649 10 24
DS 4921 649 5000 649 10 24
DS -275 -275 -196 -275 10 24
DS -433 196 -354 196 10 24
DS -1377 649 -1299 649 10 24
DS 5078 -728 5157 -728 10 24
DS -590 -728 -511 -728 10 24
DS -4685 -275 -4606 -275 10 24
DS 4763 -275 4842 -275 10 24
DS 2716 196 2795 196 10 24
DS -2322 196 -2244 196 10 24
DS -3582 196 -3503 196 10 24
DS 511 649 590 649 10 24
DS -4370 -728 -4291 -728 10 24
DS 1141 649 1220 649 10 24
DS 669 -728 748 -728 10 24
DS -5314 -275 -5236 -275 10 24
DS -2165 -275 -2086 -275 10 24
DS 984 -275 1062 -275 10 24
DS -5836 2657 -5836 4625 10 24
DS -1850 -728 -1771 -728 10 24
DS -3110 -728 -3031 -728 10 24
DS 2874 -275 2952 -275 10 24
DS -1062 196 -984 196 10 24
DS 4448 -728 4527 -728 10 24
DS 3976 196 4055 196 10 24
DS 2086 196 2165 196 10 24
DS 3503 -275 3582 -275 10 24
DS 1456 196 1535 196 10 24
DS 4281 4009 4379 4009 10 24
DS -1702 4009 -1604 4009 10 24
DS 6446 -59 6372 -59 10 24
DS -6446 -105 -6368 -105 10 24
DS -8188 951 -8307 951 10 24
DS 6446 59 6372 59 10 24
DS 1446 4009 1545 4009 10 24
DS -8188 868 -8307 868 10 24
DS 6368 -32 6446 -32 10 24
DS 6368 32 6446 32 10 24
DS -4537 4009 -4438 4009 10 24
DS 2076 4009 2175 4009 10 24
DS 6193 2657 6193 4625 10 24
DS 4596 4009 4694 4009 10 24
DS 2391 4009 2490 4009 10 24
DS 8188 1105 8307 1105 10 24
DS -6193 2657 -6193 4625 10 24
DS 501 4009 600 4009 10 24
DS 5925 2657 5925 4625 10 24
DS -6446 -59 -6372 -59 10 24
DS 8188 965 8307 965 10 24
DS 1761 4009 1860 4009 10 24
DS -127 4009 -29 4009 10 24
DS -6446 59 -6372 59 10 24
DS 5568 2657 5568 4625 10 24
DS -5568 2657 -5568 4625 10 24
DS -442 4009 -344 4009 10 24
DS 2706 4009 2805 4009 10 24
DS -6446 32 -6368 32 10 24
DS -2017 4009 -1919 4009 10 24
DS 8188 1119 8307 1119 10 24
DS 8188 817 8307 817 10 24
DS -5925 2657 -5925 4625 10 24
DS -6446 -32 -6368 -32 10 24
DS -2332 4009 -2234 4009 10 24
DS -2647 4009 -2549 4009 10 24
DS -6289 -57 -6368 -57 10 24
DS -6289 57 -6368 57 10 24
DS 8188 951 8307 951 10 24
DS -2962 4009 -2864 4009 10 24
DS 4911 4009 5009 4009 10 24
DS 6269 57 6368 57 10 24
DS 8188 736 8307 736 10 24
DS -3277 4009 -3179 4009 10 24
DS 1131 4009 1230 4009 10 24
DS 8188 1253 8307 1253 10 24
DS 8188 723 8307 723 10 24
DS -3592 4009 -3494 4009 10 24
DS -4852 4009 -4753 4009 10 24
DS 8188 1334 8307 1334 10 24
DS 6269 -57 6368 -57 10 24
DS 8188 868 8307 868 10 24
DS -8188 1347 -8307 1347 10 24
DS -5568 4704 -5568 4625 10 24
DS -8188 1202 -8307 1202 10 24
DS -3907 4009 -3809 4009 10 24
DS -5167 4009 -5068 4009 10 24
DS 5568 4704 5568 4625 10 24
DS 8188 1347 8307 1347 10 24
DS -757 4009 -659 4009 10 24
DS -8188 723 -8307 723 10 24
DS -8188 1119 -8307 1119 10 24
DS 8188 1202 8307 1202 10 24
DS 816 4009 915 4009 10 24
DS -8188 965 -8307 965 10 24
DS 3021 4009 3120 4009 10 24
DS -8188 1253 -8307 1253 10 24
DS -8188 1334 -8307 1334 10 24
DS 3651 4009 3750 4009 10 24
DS -4222 4009 -4124 4009 10 24
DS -8188 817 -8307 817 10 24
DS -8188 736 -8307 736 10 24
DS -8188 1105 -8307 1105 10 24
DS 6368 105 6446 105 10 24
DS 5226 4009 5324 4009 10 24
DS 187 4009 285 4009 10 24
DS -1387 4009 -1289 4009 10 24
DS 3966 4009 4064 4009 10 24
DS 3336 4009 3435 4009 10 24
DS -1072 4009 -974 4009 10 24
DS 6368 -105 6446 -105 10 24
DS -6446 105 -6368 105 10 24
DS -8484 433 -8484 -1141 80 21
DS -8484 -1141 -5196 -1141 80 21
DS 5393 -1141 8484 -1141 80 21
DS 8484 -1141 8484 433 80 21
DS -8484 2401 -8484 1653 80 21
DS 8484 1653 8484 2401 80 21
DA -7381 39 -7539 39 5400 10 24 
DA -6909 -846 -6909 -944 4500 10 24 
DA -7893 -846 -7992 -846 4500 10 24 
DA -7381 39 -7224 39 5400 10 24 
DA 7381 39 7224 39 5400 10 24 
DA 7381 39 7539 39 5400 10 24 
DA 6909 -846 6811 -846 4500 10 24 
DA 7893 -846 7893 -944 4499 10 24 
DA -6151 4625 -6151 4704 4500 10 24 
DA 6151 4625 6230 4625 4500 10 24 
T0 -7464 -1577 400 400 0 70 N V 21 N ">NAME"
T1 960 840 320 320 0 30 N V 21 N ">VALUE"
$PAD
Sh "1" C 416 833 0 0 0
Dr 216 0 0 
At STD N 00CCFFFF
Ne 0 ""
Po 5120 -925 
$EndPAD
$PAD
Sh "2" C 416 833 0 0 0
Dr 216 0 0 
At STD N 00CCFFFF
Ne 0 ""
Po 4805 -472 
$EndPAD
$PAD
Sh "3" C 416 833 0 0 0
Dr 216 0 0 
At STD N 00CCFFFF
Ne 0 ""
Po 4490 -925 
$EndPAD
$PAD
Sh "4" C 416 833 0 0 0
Dr 216 0 0 
At STD N 00CCFFFF
Ne 0 ""
Po 4175 -472 
$EndPAD
$PAD
Sh "5" C 416 833 0 0 0
Dr 216 0 0 
At STD N 00CCFFFF
Ne 0 ""
Po 3860 -925 
$EndPAD
$PAD
Sh "6" C 416 833 0 0 0
Dr 216 0 0 
At STD N 00CCFFFF
Ne 0 ""
Po 3545 -472 
$EndPAD
$PAD
Sh "7" C 416 833 0 0 0
Dr 216 0 0 
At STD N 00CCFFFF
Ne 0 ""
Po 3230 -925 
$EndPAD
$PAD
Sh "8" C 416 833 0 0 0
Dr 216 0 0 
At STD N 00CCFFFF
Ne 0 ""
Po 2915 -472 
$EndPAD
$PAD
Sh "9" C 416 833 0 0 0
Dr 216 0 0 
At STD N 00CCFFFF
Ne 0 ""
Po 2600 -925 
$EndPAD
$PAD
Sh "10" C 416 833 0 0 0
Dr 216 0 0 
At STD N 00CCFFFF
Ne 0 ""
Po 2285 -472 
$EndPAD
$PAD
Sh "11" C 416 833 0 0 0
Dr 216 0 0 
At STD N 00CCFFFF
Ne 0 ""
Po 1970 -925 
$EndPAD
$PAD
Sh "12" C 416 833 0 0 0
Dr 216 0 0 
At STD N 00CCFFFF
Ne 0 ""
Po 1655 -472 
$EndPAD
$PAD
Sh "13" C 416 833 0 0 0
Dr 216 0 0 
At STD N 00CCFFFF
Ne 0 ""
Po 1340 -925 
$EndPAD
$PAD
Sh "14" C 416 833 0 0 0
Dr 216 0 0 
At STD N 00CCFFFF
Ne 0 ""
Po 1025 -472 
$EndPAD
$PAD
Sh "15" C 416 833 0 0 0
Dr 216 0 0 
At STD N 00CCFFFF
Ne 0 ""
Po 710 -925 
$EndPAD
$PAD
Sh "16" C 416 833 0 0 0
Dr 216 0 0 
At STD N 00CCFFFF
Ne 0 ""
Po 395 -472 
$EndPAD
$PAD
Sh "17" C 416 833 0 0 0
Dr 216 0 0 
At STD N 00CCFFFF
Ne 0 ""
Po 80 -925 
$EndPAD
$PAD
Sh "18" C 416 833 0 0 0
Dr 216 0 0 
At STD N 00CCFFFF
Ne 0 ""
Po -234 -472 
$EndPAD
$PAD
Sh "19" C 416 833 0 0 0
Dr 216 0 0 
At STD N 00CCFFFF
Ne 0 ""
Po -549 -925 
$EndPAD
$PAD
Sh "20" C 416 833 0 0 0
Dr 216 0 0 
At STD N 00CCFFFF
Ne 0 ""
Po -864 -472 
$EndPAD
$PAD
Sh "21" C 416 833 0 0 0
Dr 216 0 0 
At STD N 00CCFFFF
Ne 0 ""
Po -1179 -925 
$EndPAD
$PAD
Sh "22" C 416 833 0 0 0
Dr 216 0 0 
At STD N 00CCFFFF
Ne 0 ""
Po -1494 -472 
$EndPAD
$PAD
Sh "23" C 416 833 0 0 0
Dr 216 0 0 
At STD N 00CCFFFF
Ne 0 ""
Po -1809 -925 
$EndPAD
$PAD
Sh "24" C 416 833 0 0 0
Dr 216 0 0 
At STD N 00CCFFFF
Ne 0 ""
Po -2124 -472 
$EndPAD
$PAD
Sh "25" C 416 833 0 0 0
Dr 216 0 0 
At STD N 00CCFFFF
Ne 0 ""
Po -2438 -925 
$EndPAD
$PAD
Sh "26" C 416 833 0 0 0
Dr 216 0 0 
At STD N 00CCFFFF
Ne 0 ""
Po -2753 -472 
$EndPAD
$PAD
Sh "27" C 416 833 0 0 0
Dr 216 0 0 
At STD N 00CCFFFF
Ne 0 ""
Po -3068 -925 
$EndPAD
$PAD
Sh "28" C 416 833 0 0 0
Dr 216 0 0 
At STD N 00CCFFFF
Ne 0 ""
Po -3383 -472 
$EndPAD
$PAD
Sh "29" C 416 833 0 0 0
Dr 216 0 0 
At STD N 00CCFFFF
Ne 0 ""
Po -3698 -925 
$EndPAD
$PAD
Sh "30" C 416 833 0 0 0
Dr 216 0 0 
At STD N 00CCFFFF
Ne 0 ""
Po -4013 -472 
$EndPAD
$PAD
Sh "31" C 416 833 0 0 0
Dr 216 0 0 
At STD N 00CCFFFF
Ne 0 ""
Po -4328 -925 
$EndPAD
$PAD
Sh "32" C 416 833 0 0 0
Dr 216 0 0 
At STD N 00CCFFFF
Ne 0 ""
Po -4643 -472 
$EndPAD
$PAD
Sh "33" C 416 833 0 0 0
Dr 216 0 0 
At STD N 00CCFFFF
Ne 0 ""
Po -4958 -925 
$EndPAD
$PAD
Sh "34" C 416 833 0 0 0
Dr 216 0 0 
At STD N 00CCFFFF
Ne 0 ""
Po -5273 -472 
$EndPAD
$PAD
Sh "35" C 416 833 0 0 0
Dr 216 0 0 
At STD N 00CCFFFF
Ne 0 ""
Po 5277 0 
$EndPAD
$PAD
Sh "36" C 416 833 0 0 0
Dr 216 0 0 
At STD N 00CCFFFF
Ne 0 ""
Po 4962 452 
$EndPAD
$PAD
Sh "37" C 416 833 0 0 0
Dr 216 0 0 
At STD N 00CCFFFF
Ne 0 ""
Po 4647 0 
$EndPAD
$PAD
Sh "38" C 416 833 0 0 0
Dr 216 0 0 
At STD N 00CCFFFF
Ne 0 ""
Po 4332 452 
$EndPAD
$PAD
Sh "39" C 416 833 0 0 0
Dr 216 0 0 
At STD N 00CCFFFF
Ne 0 ""
Po 4017 0 
$EndPAD
$PAD
Sh "40" C 416 833 0 0 0
Dr 216 0 0 
At STD N 00CCFFFF
Ne 0 ""
Po 3702 452 
$EndPAD
$PAD
Sh "41" C 416 833 0 0 0
Dr 216 0 0 
At STD N 00CCFFFF
Ne 0 ""
Po 3387 0 
$EndPAD
$PAD
Sh "42" C 416 833 0 0 0
Dr 216 0 0 
At STD N 00CCFFFF
Ne 0 ""
Po 3072 452 
$EndPAD
$PAD
Sh "43" C 416 833 0 0 0
Dr 216 0 0 
At STD N 00CCFFFF
Ne 0 ""
Po 2757 0 
$EndPAD
$PAD
Sh "44" C 416 833 0 0 0
Dr 216 0 0 
At STD N 00CCFFFF
Ne 0 ""
Po 2442 452 
$EndPAD
$PAD
Sh "45" C 416 833 0 0 0
Dr 216 0 0 
At STD N 00CCFFFF
Ne 0 ""
Po 2127 0 
$EndPAD
$PAD
Sh "46" C 416 833 0 0 0
Dr 216 0 0 
At STD N 00CCFFFF
Ne 0 ""
Po 1812 452 
$EndPAD
$PAD
Sh "47" C 416 833 0 0 0
Dr 216 0 0 
At STD N 00CCFFFF
Ne 0 ""
Po 1498 0 
$EndPAD
$PAD
Sh "48" C 416 833 0 0 0
Dr 216 0 0 
At STD N 00CCFFFF
Ne 0 ""
Po 1183 452 
$EndPAD
$PAD
Sh "49" C 416 833 0 0 0
Dr 216 0 0 
At STD N 00CCFFFF
Ne 0 ""
Po 868 0 
$EndPAD
$PAD
Sh "50" C 416 833 0 0 0
Dr 216 0 0 
At STD N 00CCFFFF
Ne 0 ""
Po 553 452 
$EndPAD
$PAD
Sh "51" C 416 833 0 0 0
Dr 216 0 0 
At STD N 00CCFFFF
Ne 0 ""
Po 238 0 
$EndPAD
$PAD
Sh "52" C 416 833 0 0 0
Dr 216 0 0 
At STD N 00CCFFFF
Ne 0 ""
Po -76 452 
$EndPAD
$PAD
Sh "53" C 416 833 0 0 0
Dr 216 0 0 
At STD N 00CCFFFF
Ne 0 ""
Po -391 0 
$EndPAD
$PAD
Sh "54" C 416 833 0 0 0
Dr 216 0 0 
At STD N 00CCFFFF
Ne 0 ""
Po -706 452 
$EndPAD
$PAD
Sh "55" C 416 833 0 0 0
Dr 216 0 0 
At STD N 00CCFFFF
Ne 0 ""
Po -1021 0 
$EndPAD
$PAD
Sh "56" C 416 833 0 0 0
Dr 216 0 0 
At STD N 00CCFFFF
Ne 0 ""
Po -1336 452 
$EndPAD
$PAD
Sh "57" C 416 833 0 0 0
Dr 216 0 0 
At STD N 00CCFFFF
Ne 0 ""
Po -1651 0 
$EndPAD
$PAD
Sh "58" C 416 833 0 0 0
Dr 216 0 0 
At STD N 00CCFFFF
Ne 0 ""
Po -1966 452 
$EndPAD
$PAD
Sh "59" C 416 833 0 0 0
Dr 216 0 0 
At STD N 00CCFFFF
Ne 0 ""
Po -2281 0 
$EndPAD
$PAD
Sh "60" C 416 833 0 0 0
Dr 216 0 0 
At STD N 00CCFFFF
Ne 0 ""
Po -2596 452 
$EndPAD
$PAD
Sh "61" C 416 833 0 0 0
Dr 216 0 0 
At STD N 00CCFFFF
Ne 0 ""
Po -2911 0 
$EndPAD
$PAD
Sh "62" C 416 833 0 0 0
Dr 216 0 0 
At STD N 00CCFFFF
Ne 0 ""
Po -3226 452 
$EndPAD
$PAD
Sh "63" C 416 833 0 0 0
Dr 216 0 0 
At STD N 00CCFFFF
Ne 0 ""
Po -3541 0 
$EndPAD
$PAD
Sh "64" C 416 833 0 0 0
Dr 216 0 0 
At STD N 00CCFFFF
Ne 0 ""
Po -3856 452 
$EndPAD
$PAD
Sh "65" C 416 833 0 0 0
Dr 216 0 0 
At STD N 00CCFFFF
Ne 0 ""
Po -4171 0 
$EndPAD
$PAD
Sh "66" C 416 833 0 0 0
Dr 216 0 0 
At STD N 00CCFFFF
Ne 0 ""
Po -4486 452 
$EndPAD
$PAD
Sh "67" C 416 833 0 0 0
Dr 216 0 0 
At STD N 00CCFFFF
Ne 0 ""
Po -4801 0 
$EndPAD
$PAD
Sh "68" C 416 833 0 0 0
Dr 216 0 0 
At STD N 00CCFFFF
Ne 0 ""
Po -5116 452 
$EndPAD
$PAD
Sh "M1" C 1285 1285 0 0 0
Dr 885 0 0 
At STD N 00CCFFFF
Ne 0 ""
Po 6368 0 
$EndPAD
$PAD
Sh "M2" C 1285 1285 0 0 0
Dr 885 0 0 
At STD N 00CCFFFF
Ne 0 ""
Po -6368 0 
$EndPAD
$PAD
Sh "M3" C 1033 1033 0 0 0
Dr 688 0 0 
At STD N 00CCFFFF
Ne 0 ""
Po -8248 1035 
$EndPAD
$PAD
Sh "M4" C 1033 1033 0 0 0
Dr 688 0 0 
At STD N 00CCFFFF
Ne 0 ""
Po 8248 1035 
$EndPAD
$EndMODULE 71430-015
$EndLIBRARY
