(module CONN_03X32 (layer F.Cu) (tedit 59E5218D)
  (descr CONN_03X32)
  (fp_text reference J1 (at -7.62 38.1) (layer F.SilkS)
    (effects (font (size 1 1) (thickness 0.15)))
  )
  (fp_text value CONN_03X32 (at 2.54 86.36) (layer F.Fab)
    (effects (font (size 1 1) (thickness 0.15)))
  )
  (fp_line (start 7.62 -7.62) (end -5.08 -7.62) (layer F.SilkS) (width 0.15))
  (fp_line (start 7.62 88.9) (end 7.62 -7.62) (layer F.SilkS) (width 0.15))
  (fp_line (start -5.08 88.9) (end 7.62 88.9) (layer F.SilkS) (width 0.15))
  (fp_line (start -5.08 -7.62) (end -5.08 88.9) (layer F.SilkS) (width 0.15))
  (pad 32 thru_hole circle (at 0 0) (size 1.6 1.6) (drill 1) (layers *.Cu *.Mask))
  (pad 31 thru_hole circle (at 0 2.54) (size 1.6 1.6) (drill 1) (layers *.Cu *.Mask))
  (pad 30 thru_hole rect (at 0 5.08) (size 1.6 1.6) (drill 1) (layers *.Cu *.Mask))
  (pad 29 thru_hole circle (at 0 7.62) (size 1.6 1.6) (drill 1) (layers *.Cu *.Mask))
  (pad 28 thru_hole circle (at 0 10.16) (size 1.6 1.6) (drill 1) (layers *.Cu *.Mask))
  (pad 27 thru_hole circle (at 0 12.7) (size 1.6 1.6) (drill 1) (layers *.Cu *.Mask))
  (pad 26 thru_hole circle (at 0 15.24) (size 1.6 1.6) (drill 1) (layers *.Cu *.Mask))
  (pad 25 thru_hole circle (at 0 17.78) (size 1.6 1.6) (drill 1) (layers *.Cu *.Mask))
  (pad 24 thru_hole circle (at 0 20.32) (size 1.6 1.6) (drill 1) (layers *.Cu *.Mask))
  (pad 23 thru_hole circle (at 0 22.86) (size 1.6 1.6) (drill 1) (layers *.Cu *.Mask))
  (pad 22 thru_hole circle (at 0 25.4) (size 1.6 1.6) (drill 1) (layers *.Cu *.Mask))
  (pad 21 thru_hole circle (at 0 27.94) (size 1.6 1.6) (drill 1) (layers *.Cu *.Mask))
  (pad 20 thru_hole rect (at 0 30.48) (size 1.6 1.6) (drill 1) (layers *.Cu *.Mask))
  (pad 19 thru_hole circle (at 0 33.02) (size 1.6 1.6) (drill 1) (layers *.Cu *.Mask))
  (pad 18 thru_hole circle (at 0 35.56) (size 1.6 1.6) (drill 1) (layers *.Cu *.Mask))
  (pad 17 thru_hole circle (at 0 38.1) (size 1.6 1.6) (drill 1) (layers *.Cu *.Mask))
  (pad 16 thru_hole circle (at 0 40.64) (size 1.6 1.6) (drill 1) (layers *.Cu *.Mask))
  (pad 15 thru_hole circle (at 0 43.18) (size 1.6 1.6) (drill 1) (layers *.Cu *.Mask))
  (pad 14 thru_hole circle (at 0 45.72) (size 1.6 1.6) (drill 1) (layers *.Cu *.Mask))
  (pad 13 thru_hole circle (at 0 48.26) (size 1.6 1.6) (drill 1) (layers *.Cu *.Mask))
  (pad 12 thru_hole circle (at 0 50.8) (size 1.6 1.6) (drill 1) (layers *.Cu *.Mask))
  (pad 11 thru_hole circle (at 0 53.34) (size 1.6 1.6) (drill 1) (layers *.Cu *.Mask))
  (pad 10 thru_hole rect (at 0 55.88) (size 1.6 1.6) (drill 1) (layers *.Cu *.Mask))
  (pad 9 thru_hole circle (at 0 58.42) (size 1.6 1.6) (drill 1) (layers *.Cu *.Mask))
  (pad 8 thru_hole circle (at 0 60.96) (size 1.6 1.6) (drill 1) (layers *.Cu *.Mask))
  (pad 7 thru_hole circle (at 0 63.5) (size 1.6 1.6) (drill 1) (layers *.Cu *.Mask))
  (pad 6 thru_hole circle (at 0 66.04) (size 1.6 1.6) (drill 1) (layers *.Cu *.Mask))
  (pad 5 thru_hole circle (at 0 68.58) (size 1.6 1.6) (drill 1) (layers *.Cu *.Mask))
  (pad 4 thru_hole circle (at 0 71.12) (size 1.6 1.6) (drill 1) (layers *.Cu *.Mask))
  (pad 3 thru_hole circle (at 0 73.66) (size 1.6 1.6) (drill 1) (layers *.Cu *.Mask))
  (pad 2 thru_hole circle (at 0 76.2) (size 1.6 1.6) (drill 1) (layers *.Cu *.Mask))
  (pad 1 thru_hole rect (at 0 78.74) (size 1.6 1.6) (drill 1) (layers *.Cu *.Mask))
  (pad 64 thru_hole circle (at 2.54 0) (size 1.6 1.6) (drill 1) (layers *.Cu *.Mask))
  (pad 63 thru_hole circle (at 2.54 2.54) (size 1.6 1.6) (drill 1) (layers *.Cu *.Mask))
  (pad 62 thru_hole rect (at 2.54 5.08) (size 1.6 1.6) (drill 1) (layers *.Cu *.Mask))
  (pad 61 thru_hole circle (at 2.54 7.62) (size 1.6 1.6) (drill 1) (layers *.Cu *.Mask))
  (pad 60 thru_hole circle (at 2.54 10.16) (size 1.6 1.6) (drill 1) (layers *.Cu *.Mask))
  (pad 59 thru_hole circle (at 2.54 12.7) (size 1.6 1.6) (drill 1) (layers *.Cu *.Mask))
  (pad 58 thru_hole circle (at 2.54 15.24) (size 1.6 1.6) (drill 1) (layers *.Cu *.Mask))
  (pad 57 thru_hole circle (at 2.54 17.78) (size 1.6 1.6) (drill 1) (layers *.Cu *.Mask))
  (pad 56 thru_hole circle (at 2.54 20.32) (size 1.6 1.6) (drill 1) (layers *.Cu *.Mask))
  (pad 55 thru_hole circle (at 2.54 22.86) (size 1.6 1.6) (drill 1) (layers *.Cu *.Mask))
  (pad 54 thru_hole circle (at 2.54 25.4) (size 1.6 1.6) (drill 1) (layers *.Cu *.Mask))
  (pad 53 thru_hole circle (at 2.54 27.94) (size 1.6 1.6) (drill 1) (layers *.Cu *.Mask))
  (pad 52 thru_hole rect (at 2.54 30.48) (size 1.6 1.6) (drill 1) (layers *.Cu *.Mask))
  (pad 51 thru_hole circle (at 2.54 33.02) (size 1.6 1.6) (drill 1) (layers *.Cu *.Mask))
  (pad 50 thru_hole circle (at 2.54 35.56) (size 1.6 1.6) (drill 1) (layers *.Cu *.Mask))
  (pad 49 thru_hole circle (at 2.54 38.1) (size 1.6 1.6) (drill 1) (layers *.Cu *.Mask))
  (pad 48 thru_hole circle (at 2.54 40.64) (size 1.6 1.6) (drill 1) (layers *.Cu *.Mask))
  (pad 47 thru_hole circle (at 2.54 43.18) (size 1.6 1.6) (drill 1) (layers *.Cu *.Mask))
  (pad 46 thru_hole circle (at 2.54 45.72) (size 1.6 1.6) (drill 1) (layers *.Cu *.Mask))
  (pad 45 thru_hole circle (at 2.54 48.26) (size 1.6 1.6) (drill 1) (layers *.Cu *.Mask))
  (pad 44 thru_hole circle (at 2.54 50.8) (size 1.6 1.6) (drill 1) (layers *.Cu *.Mask))
  (pad 43 thru_hole circle (at 2.54 53.34) (size 1.6 1.6) (drill 1) (layers *.Cu *.Mask))
  (pad 42 thru_hole rect (at 2.54 55.88) (size 1.6 1.6) (drill 1) (layers *.Cu *.Mask))
  (pad 41 thru_hole circle (at 2.54 58.42) (size 1.6 1.6) (drill 1) (layers *.Cu *.Mask))
  (pad 40 thru_hole circle (at 2.54 60.96) (size 1.6 1.6) (drill 1) (layers *.Cu *.Mask))
  (pad 39 thru_hole circle (at 2.54 63.5) (size 1.6 1.6) (drill 1) (layers *.Cu *.Mask))
  (pad 38 thru_hole circle (at 2.54 66.04) (size 1.6 1.6) (drill 1) (layers *.Cu *.Mask))
  (pad 37 thru_hole circle (at 2.54 68.58) (size 1.6 1.6) (drill 1) (layers *.Cu *.Mask))
  (pad 36 thru_hole circle (at 2.54 71.12) (size 1.6 1.6) (drill 1) (layers *.Cu *.Mask))
  (pad 35 thru_hole circle (at 2.54 73.66) (size 1.6 1.6) (drill 1) (layers *.Cu *.Mask))
  (pad 34 thru_hole circle (at 2.54 76.2) (size 1.6 1.6) (drill 1) (layers *.Cu *.Mask))
  (pad 33 thru_hole rect (at 2.54 78.74) (size 1.6 1.6) (drill 1) (layers *.Cu *.Mask))
  (pad 96 thru_hole circle (at 5.08 0) (size 1.6 1.6) (drill 1) (layers *.Cu *.Mask))
  (pad 95 thru_hole circle (at 5.08 2.54) (size 1.6 1.6) (drill 1) (layers *.Cu *.Mask))
  (pad 94 thru_hole rect (at 5.08 5.08) (size 1.6 1.6) (drill 1) (layers *.Cu *.Mask))
  (pad 93 thru_hole circle (at 5.08 7.62) (size 1.6 1.6) (drill 1) (layers *.Cu *.Mask))
  (pad 92 thru_hole circle (at 5.08 10.16) (size 1.6 1.6) (drill 1) (layers *.Cu *.Mask))
  (pad 91 thru_hole circle (at 5.08 12.7) (size 1.6 1.6) (drill 1) (layers *.Cu *.Mask))
  (pad 90 thru_hole circle (at 5.08 15.24) (size 1.6 1.6) (drill 1) (layers *.Cu *.Mask))
  (pad 89 thru_hole circle (at 5.08 17.78) (size 1.6 1.6) (drill 1) (layers *.Cu *.Mask))
  (pad 88 thru_hole circle (at 5.08 20.32) (size 1.6 1.6) (drill 1) (layers *.Cu *.Mask))
  (pad 87 thru_hole circle (at 5.08 22.86) (size 1.6 1.6) (drill 1) (layers *.Cu *.Mask))
  (pad 86 thru_hole circle (at 5.08 25.4) (size 1.6 1.6) (drill 1) (layers *.Cu *.Mask))
  (pad 85 thru_hole circle (at 5.08 27.94) (size 1.6 1.6) (drill 1) (layers *.Cu *.Mask))
  (pad 84 thru_hole rect (at 5.08 30.48) (size 1.6 1.6) (drill 1) (layers *.Cu *.Mask))
  (pad 83 thru_hole circle (at 5.08 33.02) (size 1.6 1.6) (drill 1) (layers *.Cu *.Mask))
  (pad 82 thru_hole circle (at 5.08 35.56) (size 1.6 1.6) (drill 1) (layers *.Cu *.Mask))
  (pad 81 thru_hole circle (at 5.08 38.1) (size 1.6 1.6) (drill 1) (layers *.Cu *.Mask))
  (pad 80 thru_hole circle (at 5.08 40.64) (size 1.6 1.6) (drill 1) (layers *.Cu *.Mask))
  (pad 79 thru_hole circle (at 5.08 43.18) (size 1.6 1.6) (drill 1) (layers *.Cu *.Mask))
  (pad 78 thru_hole circle (at 5.08 45.72) (size 1.6 1.6) (drill 1) (layers *.Cu *.Mask))
  (pad 77 thru_hole rect (at 5.08 48.26) (size 1.6 1.6) (drill 1) (layers *.Cu *.Mask))
  (pad 76 thru_hole circle (at 5.08 50.8) (size 1.6 1.6) (drill 1) (layers *.Cu *.Mask))
  (pad 75 thru_hole circle (at 5.08 53.34) (size 1.6 1.6) (drill 1) (layers *.Cu *.Mask))
  (pad 74 thru_hole rect (at 5.08 55.88) (size 1.6 1.6) (drill 1) (layers *.Cu *.Mask))
  (pad 73 thru_hole circle (at 5.08 58.42) (size 1.6 1.6) (drill 1) (layers *.Cu *.Mask))
  (pad 72 thru_hole circle (at 5.08 60.96) (size 1.6 1.6) (drill 1) (layers *.Cu *.Mask))
  (pad 71 thru_hole circle (at 5.08 63.5) (size 1.6 1.6) (drill 1) (layers *.Cu *.Mask))
  (pad 70 thru_hole circle (at 5.08 66.04) (size 1.6 1.6) (drill 1) (layers *.Cu *.Mask))
  (pad 69 thru_hole circle (at 5.08 68.58) (size 1.6 1.6) (drill 1) (layers *.Cu *.Mask))
  (pad 68 thru_hole circle (at 5.08 71.12) (size 1.6 1.6) (drill 1) (layers *.Cu *.Mask))
  (pad 67 thru_hole circle (at 5.08 73.66) (size 1.6 1.6) (drill 1) (layers *.Cu *.Mask))
  (pad 66 thru_hole circle (at 5.08 76.2) (size 1.6 1.6) (drill 1) (layers *.Cu *.Mask))
  (pad 65 thru_hole rect (at 5.08 78.74) (size 1.6 1.6) (drill 1) (layers *.Cu *.Mask))
  (pad "" thru_hole circle (at -2.54 -5.08) (size 2.8 2.8) (drill 2.8) (layers *.Cu *.Mask))
  (pad "" thru_hole circle (at -2.54 83.82) (size 2.8 2.8) (drill 2.8) (layers *.Cu *.Mask))
)
